============================== Prover9 ===============================
Prover9 (64) version 2009-11A, November 2009.
Process 7829 was started by frauke on frauke-LENOVO-YOGA3-11,
Mon Nov  5 18:42:12 2018
The command was "prover9 -f prover_input_files/test_input_file_A30.in".
============================== end of head ===========================

============================== INPUT =================================

% Reading from file prover_input_files/test_input_file_A30.in

set(ignore_option_dependencies).

formulas(assumptions).
Tb(x) <-> (exists y tb(x,y)) # label(D1).
tb(x,y) <-> ftb(x,y) | ltb(x,y) # label(D8).
before(x,y) <-> (exists u exists v exists z (Chron(z) & ftb(u,z) & ltb(v,z) & tcoinc(u,x) & tcoinc(v,y))) # label(D13).
during(x,y) <-> Chron(x) & Chron(y) & tppart(x,y) & -starts(x,y) & -ends(x,y) # label(D4).
(all x (Chron(x) & -Tb(x) | Tb(x) & -Chron(x))) # label(domain_IP).
(all x all y (ftb(x,y) -> Tb(x) & Chron(y))) # label(begin_IP).
(all x all y (tcoinc(x,y) -> Tb(x) & Tb(y))) # label(tcoincIPC).
tpart(x,y) <-> Chron(x) & Chron(y) & ftb(u,x) & ltb(w,x) & ftb(v,y) & ltb(z,y) & (v != u -> -tcoinc(v,u) & beforeIP(v,u)) & (w != z -> -tcoinc(w,z) & beforeIP(w,z)) # label(B5).
ft(x) = u <-> ftb(u,x) # label(D11).
lt(x) = u <-> ltb(u,x) # label(D12).
end_of_list.

formulas(goals).
(all x all y (Chron(x) & Chron(y) & (exists u (Chron(u) & ft(u) = ft(y) & tcoinc(lt(u),ft(x)))) & (exists v (Chron(v) & tcoinc(ft(v),lt(x)) & lt(v) = lt(y))) -> during(x,y))) # label(A30).
end_of_list.

============================== end of input ==========================

% Enabling option dependencies (ignore applies only on input).

============================== PROCESS NON-CLAUSAL FORMULAS ==========

% Formulas that are not ordinary clauses:
1 Tb(x) <-> (exists y tb(x,y)) # label(D1) # label(non_clause).  [assumption].
2 tb(x,y) <-> ftb(x,y) | ltb(x,y) # label(D8) # label(non_clause).  [assumption].
3 before(x,y) <-> (exists u exists v exists z (Chron(z) & ftb(u,z) & ltb(v,z) & tcoinc(u,x) & tcoinc(v,y))) # label(D13) # label(non_clause).  [assumption].
4 during(x,y) <-> Chron(x) & Chron(y) & tppart(x,y) & -starts(x,y) & -ends(x,y) # label(D4) # label(non_clause).  [assumption].
5 (all x (Chron(x) & -Tb(x) | Tb(x) & -Chron(x))) # label(domain_IP) # label(non_clause).  [assumption].
6 (all x all y (ftb(x,y) -> Tb(x) & Chron(y))) # label(begin_IP) # label(non_clause).  [assumption].
7 (all x all y (tcoinc(x,y) -> Tb(x) & Tb(y))) # label(tcoincIPC) # label(non_clause).  [assumption].
8 tpart(x,y) <-> Chron(x) & Chron(y) & ftb(u,x) & ltb(w,x) & ftb(v,y) & ltb(z,y) & (v != u -> -tcoinc(v,u) & beforeIP(v,u)) & (w != z -> -tcoinc(w,z) & beforeIP(w,z)) # label(B5) # label(non_clause).  [assumption].
9 ft(x) = u <-> ftb(u,x) # label(D11) # label(non_clause).  [assumption].
10 lt(x) = u <-> ltb(u,x) # label(D12) # label(non_clause).  [assumption].
11 (all x all y (Chron(x) & Chron(y) & (exists u (Chron(u) & ft(u) = ft(y) & tcoinc(lt(u),ft(x)))) & (exists v (Chron(v) & tcoinc(ft(v),lt(x)) & lt(v) = lt(y))) -> during(x,y))) # label(A30) # label(non_clause) # label(goal).  [goal].

============================== end of process non-clausal formulas ===

============================== PROCESS INITIAL CLAUSES ===============

% Clauses before input processing:

formulas(usable).
end_of_list.

formulas(sos).
-Tb(x) | tb(x,f1(x)) # label(D1).  [clausify(1)].
Tb(x) | -tb(x,y) # label(D1).  [clausify(1)].
-tb(x,y) | ftb(x,y) | ltb(x,y) # label(D8).  [clausify(2)].
tb(x,y) | -ftb(x,y) # label(D8).  [clausify(2)].
tb(x,y) | -ltb(x,y) # label(D8).  [clausify(2)].
-before(x,y) | Chron(f4(x,y)) # label(D13).  [clausify(3)].
-before(x,y) | ftb(f2(x,y),f4(x,y)) # label(D13).  [clausify(3)].
-before(x,y) | ltb(f3(x,y),f4(x,y)) # label(D13).  [clausify(3)].
-before(x,y) | tcoinc(f2(x,y),x) # label(D13).  [clausify(3)].
-before(x,y) | tcoinc(f3(x,y),y) # label(D13).  [clausify(3)].
before(x,y) | -Chron(z) | -ftb(u,z) | -ltb(w,z) | -tcoinc(u,x) | -tcoinc(w,y) # label(D13).  [clausify(3)].
-during(x,y) | Chron(x) # label(D4).  [clausify(4)].
-during(x,y) | Chron(y) # label(D4).  [clausify(4)].
-during(x,y) | tppart(x,y) # label(D4).  [clausify(4)].
-during(x,y) | -starts(x,y) # label(D4).  [clausify(4)].
-during(x,y) | -ends(x,y) # label(D4).  [clausify(4)].
during(x,y) | -Chron(x) | -Chron(y) | -tppart(x,y) | starts(x,y) | ends(x,y) # label(D4).  [clausify(4)].
Chron(x) | Tb(x) # label(domain_IP).  [clausify(5)].
-Tb(x) | -Chron(x) # label(domain_IP).  [clausify(5)].
-ftb(x,y) | Tb(x) # label(begin_IP).  [clausify(6)].
-ftb(x,y) | Chron(y) # label(begin_IP).  [clausify(6)].
-tcoinc(x,y) | Tb(x) # label(tcoincIPC).  [clausify(7)].
-tcoinc(x,y) | Tb(y) # label(tcoincIPC).  [clausify(7)].
-tpart(x,y) | Chron(x) # label(B5).  [clausify(8)].
-tpart(x,y) | Chron(y) # label(B5).  [clausify(8)].
-tpart(x,y) | ftb(z,x) # label(B5).  [clausify(8)].
-tpart(x,y) | ltb(z,x) # label(B5).  [clausify(8)].
-tpart(x,y) | ftb(z,y) # label(B5).  [clausify(8)].
-tpart(x,y) | ltb(z,y) # label(B5).  [clausify(8)].
-tpart(x,y) | z = u | -tcoinc(z,u) # label(B5).  [clausify(8)].
-tpart(x,y) | z = u | beforeIP(z,u) # label(B5).  [clausify(8)].
-tpart(x,y) | z = u | -tcoinc(z,u) # label(B5).  [clausify(8)].
-tpart(x,y) | z = u | beforeIP(z,u) # label(B5).  [clausify(8)].
tpart(x,y) | -Chron(x) | -Chron(y) | -ftb(z,x) | -ltb(u,x) | -ftb(w,y) | -ltb(v5,y) | w != z | u != v5 # label(B5).  [clausify(8)].
tpart(x,y) | -Chron(x) | -Chron(y) | -ftb(z,x) | -ltb(u,x) | -ftb(w,y) | -ltb(v5,y) | w != z | tcoinc(u,v5) | -beforeIP(u,v5) # label(B5).  [clausify(8)].
tpart(x,y) | -Chron(x) | -Chron(y) | -ftb(z,x) | -ltb(u,x) | -ftb(w,y) | -ltb(v5,y) | tcoinc(w,z) | -beforeIP(w,z) | u != v5 # label(B5).  [clausify(8)].
tpart(x,y) | -Chron(x) | -Chron(y) | -ftb(z,x) | -ltb(u,x) | -ftb(w,y) | -ltb(v5,y) | tcoinc(w,z) | -beforeIP(w,z) | tcoinc(u,v5) | -beforeIP(u,v5) # label(B5).  [clausify(8)].
ft(x) != y | ftb(y,x) # label(D11).  [clausify(9)].
ft(x) = y | -ftb(y,x) # label(D11).  [clausify(9)].
lt(x) != y | ltb(y,x) # label(D12).  [clausify(10)].
lt(x) = y | -ltb(y,x) # label(D12).  [clausify(10)].
Chron(c1) # label(A30).  [deny(11)].
Chron(c2) # label(A30).  [deny(11)].
Chron(c3) # label(A30).  [deny(11)].
ft(c3) = ft(c2) # label(A30).  [deny(11)].
tcoinc(lt(c3),ft(c1)) # label(A30).  [deny(11)].
Chron(c4) # label(A30).  [deny(11)].
tcoinc(ft(c4),lt(c1)) # label(A30).  [deny(11)].
lt(c4) = lt(c2) # label(A30).  [deny(11)].
-during(c1,c2) # label(A30).  [deny(11)].
end_of_list.

formulas(demodulators).
end_of_list.

============================== PREDICATE ELIMINATION =================

Eliminating Tb/1
12 Tb(x) | -tb(x,y) # label(D1).  [clausify(1)].
13 -Tb(x) | tb(x,f1(x)) # label(D1).  [clausify(1)].
Derived: -tb(x,y) | tb(x,f1(x)).  [resolve(12,a,13,a)].
14 Chron(x) | Tb(x) # label(domain_IP).  [clausify(5)].
Derived: Chron(x) | tb(x,f1(x)).  [resolve(14,b,13,a)].
15 -Tb(x) | -Chron(x) # label(domain_IP).  [clausify(5)].
Derived: -Chron(x) | -tb(x,y).  [resolve(15,a,12,a)].
16 -ftb(x,y) | Tb(x) # label(begin_IP).  [clausify(6)].
Derived: -ftb(x,y) | tb(x,f1(x)).  [resolve(16,b,13,a)].
Derived: -ftb(x,y) | -Chron(x).  [resolve(16,b,15,a)].
17 -tcoinc(x,y) | Tb(x) # label(tcoincIPC).  [clausify(7)].
Derived: -tcoinc(x,y) | tb(x,f1(x)).  [resolve(17,b,13,a)].
Derived: -tcoinc(x,y) | -Chron(x).  [resolve(17,b,15,a)].
18 -tcoinc(x,y) | Tb(y) # label(tcoincIPC).  [clausify(7)].
Derived: -tcoinc(x,y) | tb(y,f1(y)).  [resolve(18,b,13,a)].
Derived: -tcoinc(x,y) | -Chron(y).  [resolve(18,b,15,a)].

Eliminating before/2
19 before(x,y) | -Chron(z) | -ftb(u,z) | -ltb(w,z) | -tcoinc(u,x) | -tcoinc(w,y) # label(D13).  [clausify(3)].
20 -before(x,y) | Chron(f4(x,y)) # label(D13).  [clausify(3)].
21 -before(x,y) | ftb(f2(x,y),f4(x,y)) # label(D13).  [clausify(3)].
22 -before(x,y) | ltb(f3(x,y),f4(x,y)) # label(D13).  [clausify(3)].
23 -before(x,y) | tcoinc(f2(x,y),x) # label(D13).  [clausify(3)].
24 -before(x,y) | tcoinc(f3(x,y),y) # label(D13).  [clausify(3)].
Derived: -Chron(x) | -ftb(y,x) | -ltb(z,x) | -tcoinc(y,u) | -tcoinc(z,w) | Chron(f4(u,w)).  [resolve(19,a,20,a)].
Derived: -Chron(x) | -ftb(y,x) | -ltb(z,x) | -tcoinc(y,u) | -tcoinc(z,w) | ftb(f2(u,w),f4(u,w)).  [resolve(19,a,21,a)].
Derived: -Chron(x) | -ftb(y,x) | -ltb(z,x) | -tcoinc(y,u) | -tcoinc(z,w) | ltb(f3(u,w),f4(u,w)).  [resolve(19,a,22,a)].
Derived: -Chron(x) | -ftb(y,x) | -ltb(z,x) | -tcoinc(y,u) | -tcoinc(z,w) | tcoinc(f2(u,w),u).  [resolve(19,a,23,a)].
Derived: -Chron(x) | -ftb(y,x) | -ltb(z,x) | -tcoinc(y,u) | -tcoinc(z,w) | tcoinc(f3(u,w),w).  [resolve(19,a,24,a)].

Eliminating tppart/2
25 during(x,y) | -Chron(x) | -Chron(y) | -tppart(x,y) | starts(x,y) | ends(x,y) # label(D4).  [clausify(4)].
26 -during(x,y) | tppart(x,y) # label(D4).  [clausify(4)].

Eliminating starts/2

Eliminating ends/2

Eliminating tpart/2
27 tpart(x,y) | -Chron(x) | -Chron(y) | -ftb(z,x) | -ltb(u,x) | -ftb(w,y) | -ltb(v5,y) | w != z | u != v5 # label(B5).  [clausify(8)].
28 -tpart(x,y) | Chron(x) # label(B5).  [clausify(8)].
29 -tpart(x,y) | Chron(y) # label(B5).  [clausify(8)].
30 -tpart(x,y) | ftb(z,x) # label(B5).  [clausify(8)].
31 -tpart(x,y) | ltb(z,x) # label(B5).  [clausify(8)].
32 -tpart(x,y) | ftb(z,y) # label(B5).  [clausify(8)].
33 -tpart(x,y) | ltb(z,y) # label(B5).  [clausify(8)].
34 -tpart(x,y) | z = u | -tcoinc(z,u) # label(B5).  [clausify(8)].
35 -tpart(x,y) | z = u | beforeIP(z,u) # label(B5).  [clausify(8)].
36 -tpart(x,y) | z = u | -tcoinc(z,u) # label(B5).  [clausify(8)].
37 -tpart(x,y) | z = u | beforeIP(z,u) # label(B5).  [clausify(8)].
Derived: -Chron(x) | -Chron(y) | -ftb(z,x) | -ltb(u,x) | -ftb(w,y) | -ltb(v5,y) | w != z | u != v5 | ftb(v6,x).  [resolve(27,a,30,a)].
Derived: -Chron(x) | -Chron(y) | -ftb(z,x) | -ltb(u,x) | -ftb(w,y) | -ltb(v5,y) | w != z | u != v5 | ltb(v6,x).  [resolve(27,a,31,a)].
Derived: -Chron(x) | -Chron(y) | -ftb(z,x) | -ltb(u,x) | -ftb(w,y) | -ltb(v5,y) | w != z | u != v5 | ftb(v6,y).  [resolve(27,a,32,a)].
Derived: -Chron(x) | -Chron(y) | -ftb(z,x) | -ltb(u,x) | -ftb(w,y) | -ltb(v5,y) | w != z | u != v5 | ltb(v6,y).  [resolve(27,a,33,a)].
Derived: -Chron(x) | -Chron(y) | -ftb(z,x) | -ltb(u,x) | -ftb(w,y) | -ltb(v5,y) | w != z | u != v5 | v6 = v7 | -tcoinc(v6,v7).  [resolve(27,a,34,a)].
Derived: -Chron(x) | -Chron(y) | -ftb(z,x) | -ltb(u,x) | -ftb(w,y) | -ltb(v5,y) | w != z | u != v5 | v6 = v7 | beforeIP(v6,v7).  [resolve(27,a,35,a)].
38 tpart(x,y) | -Chron(x) | -Chron(y) | -ftb(z,x) | -ltb(u,x) | -ftb(w,y) | -ltb(v5,y) | w != z | tcoinc(u,v5) | -beforeIP(u,v5) # label(B5).  [clausify(8)].
Derived: -Chron(x) | -Chron(y) | -ftb(z,x) | -ltb(u,x) | -ftb(w,y) | -ltb(v5,y) | w != z | tcoinc(u,v5) | -beforeIP(u,v5) | ftb(v6,x).  [resolve(38,a,30,a)].
Derived: -Chron(x) | -Chron(y) | -ftb(z,x) | -ltb(u,x) | -ftb(w,y) | -ltb(v5,y) | w != z | tcoinc(u,v5) | -beforeIP(u,v5) | ltb(v6,x).  [resolve(38,a,31,a)].
Derived: -Chron(x) | -Chron(y) | -ftb(z,x) | -ltb(u,x) | -ftb(w,y) | -ltb(v5,y) | w != z | tcoinc(u,v5) | -beforeIP(u,v5) | ftb(v6,y).  [resolve(38,a,32,a)].
Derived: -Chron(x) | -Chron(y) | -ftb(z,x) | -ltb(u,x) | -ftb(w,y) | -ltb(v5,y) | w != z | tcoinc(u,v5) | -beforeIP(u,v5) | ltb(v6,y).  [resolve(38,a,33,a)].
Derived: -Chron(x) | -Chron(y) | -ftb(z,x) | -ltb(u,x) | -ftb(w,y) | -ltb(v5,y) | w != z | tcoinc(u,v5) | -beforeIP(u,v5) | v6 = v7 | -tcoinc(v6,v7).  [resolve(38,a,34,a)].
Derived: -Chron(x) | -Chron(y) | -ftb(z,x) | -ltb(u,x) | -ftb(w,y) | -ltb(v5,y) | w != z | tcoinc(u,v5) | -beforeIP(u,v5) | v6 = v7 | beforeIP(v6,v7).  [resolve(38,a,35,a)].
39 tpart(x,y) | -Chron(x) | -Chron(y) | -ftb(z,x) | -ltb(u,x) | -ftb(w,y) | -ltb(v5,y) | tcoinc(w,z) | -beforeIP(w,z) | u != v5 # label(B5).  [clausify(8)].
Derived: -Chron(x) | -Chron(y) | -ftb(z,x) | -ltb(u,x) | -ftb(w,y) | -ltb(v5,y) | tcoinc(w,z) | -beforeIP(w,z) | u != v5 | ftb(v6,x).  [resolve(39,a,30,a)].
Derived: -Chron(x) | -Chron(y) | -ftb(z,x) | -ltb(u,x) | -ftb(w,y) | -ltb(v5,y) | tcoinc(w,z) | -beforeIP(w,z) | u != v5 | ltb(v6,x).  [resolve(39,a,31,a)].
Derived: -Chron(x) | -Chron(y) | -ftb(z,x) | -ltb(u,x) | -ftb(w,y) | -ltb(v5,y) | tcoinc(w,z) | -beforeIP(w,z) | u != v5 | ftb(v6,y).  [resolve(39,a,32,a)].
Derived: -Chron(x) | -Chron(y) | -ftb(z,x) | -ltb(u,x) | -ftb(w,y) | -ltb(v5,y) | tcoinc(w,z) | -beforeIP(w,z) | u != v5 | ltb(v6,y).  [resolve(39,a,33,a)].
Derived: -Chron(x) | -Chron(y) | -ftb(z,x) | -ltb(u,x) | -ftb(w,y) | -ltb(v5,y) | tcoinc(w,z) | -beforeIP(w,z) | u != v5 | v6 = v7 | -tcoinc(v6,v7).  [resolve(39,a,34,a)].
Derived: -Chron(x) | -Chron(y) | -ftb(z,x) | -ltb(u,x) | -ftb(w,y) | -ltb(v5,y) | tcoinc(w,z) | -beforeIP(w,z) | u != v5 | v6 = v7 | beforeIP(v6,v7).  [resolve(39,a,35,a)].
40 tpart(x,y) | -Chron(x) | -Chron(y) | -ftb(z,x) | -ltb(u,x) | -ftb(w,y) | -ltb(v5,y) | tcoinc(w,z) | -beforeIP(w,z) | tcoinc(u,v5) | -beforeIP(u,v5) # label(B5).  [clausify(8)].
Derived: -Chron(x) | -Chron(y) | -ftb(z,x) | -ltb(u,x) | -ftb(w,y) | -ltb(v5,y) | tcoinc(w,z) | -beforeIP(w,z) | tcoinc(u,v5) | -beforeIP(u,v5) | ftb(v6,x).  [resolve(40,a,30,a)].
Derived: -Chron(x) | -Chron(y) | -ftb(z,x) | -ltb(u,x) | -ftb(w,y) | -ltb(v5,y) | tcoinc(w,z) | -beforeIP(w,z) | tcoinc(u,v5) | -beforeIP(u,v5) | ltb(v6,x).  [resolve(40,a,31,a)].
Derived: -Chron(x) | -Chron(y) | -ftb(z,x) | -ltb(u,x) | -ftb(w,y) | -ltb(v5,y) | tcoinc(w,z) | -beforeIP(w,z) | tcoinc(u,v5) | -beforeIP(u,v5) | ftb(v6,y).  [resolve(40,a,32,a)].
Derived: -Chron(x) | -Chron(y) | -ftb(z,x) | -ltb(u,x) | -ftb(w,y) | -ltb(v5,y) | tcoinc(w,z) | -beforeIP(w,z) | tcoinc(u,v5) | -beforeIP(u,v5) | ltb(v6,y).  [resolve(40,a,33,a)].
Derived: -Chron(x) | -Chron(y) | -ftb(z,x) | -ltb(u,x) | -ftb(w,y) | -ltb(v5,y) | tcoinc(w,z) | -beforeIP(w,z) | tcoinc(u,v5) | -beforeIP(u,v5) | v6 = v7 | -tcoinc(v6,v7).  [resolve(40,a,34,a)].
Derived: -Chron(x) | -Chron(y) | -ftb(z,x) | -ltb(u,x) | -ftb(w,y) | -ltb(v5,y) | tcoinc(w,z) | -beforeIP(w,z) | tcoinc(u,v5) | -beforeIP(u,v5) | v6 = v7 | beforeIP(v6,v7).  [resolve(40,a,35,a)].

============================== end predicate elimination =============

Auto_denials:  (non-Horn, no changes).

Term ordering decisions:
Predicate symbol precedence:  predicate_order([ =, Chron, ftb, ltb, tcoinc, beforeIP, tb, during ]).
Function symbol precedence:  function_order([ c1, c2, c3, c4, f2, f3, f4, ft, lt, f1 ]).
After inverse_order:  (no changes).
Unfolding symbols: (none).

Auto_inference settings:
  % set(paramodulation).  % (positive equality literals)
  % set(binary_resolution).  % (non-Horn)
  % set(neg_ur_resolution).  % (non-Horn, less than 100 clauses)

Auto_process settings:
  % set(factor).  % (non-Horn)
  % set(unit_deletion).  % (non-Horn)

kept:      41 -tb(x,y) | ftb(x,y) | ltb(x,y) # label(D8).  [clausify(2)].
kept:      42 tb(x,y) | -ftb(x,y) # label(D8).  [clausify(2)].
kept:      43 tb(x,y) | -ltb(x,y) # label(D8).  [clausify(2)].
kept:      44 -during(x,y) | Chron(x) # label(D4).  [clausify(4)].
kept:      45 -during(x,y) | Chron(y) # label(D4).  [clausify(4)].
kept:      46 -ftb(x,y) | Chron(y) # label(begin_IP).  [clausify(6)].
kept:      47 ft(x) != y | ftb(y,x) # label(D11).  [clausify(9)].
kept:      48 ft(x) = y | -ftb(y,x) # label(D11).  [clausify(9)].
kept:      49 lt(x) != y | ltb(y,x) # label(D12).  [clausify(10)].
kept:      50 lt(x) = y | -ltb(y,x) # label(D12).  [clausify(10)].
kept:      51 Chron(c1) # label(A30).  [deny(11)].
kept:      52 Chron(c2) # label(A30).  [deny(11)].
kept:      53 Chron(c3) # label(A30).  [deny(11)].
kept:      54 ft(c3) = ft(c2) # label(A30).  [deny(11)].
kept:      55 tcoinc(lt(c3),ft(c1)) # label(A30).  [deny(11)].
kept:      56 Chron(c4) # label(A30).  [deny(11)].
kept:      57 tcoinc(ft(c4),lt(c1)) # label(A30).  [deny(11)].
kept:      58 lt(c4) = lt(c2) # label(A30).  [deny(11)].
kept:      59 -during(c1,c2) # label(A30).  [deny(11)].
kept:      60 -tb(x,y) | tb(x,f1(x)).  [resolve(12,a,13,a)].
kept:      61 Chron(x) | tb(x,f1(x)).  [resolve(14,b,13,a)].
kept:      62 -Chron(x) | -tb(x,y).  [resolve(15,a,12,a)].
kept:      63 -ftb(x,y) | tb(x,f1(x)).  [resolve(16,b,13,a)].
kept:      64 -ftb(x,y) | -Chron(x).  [resolve(16,b,15,a)].
kept:      65 -tcoinc(x,y) | tb(x,f1(x)).  [resolve(17,b,13,a)].
kept:      66 -tcoinc(x,y) | -Chron(x).  [resolve(17,b,15,a)].
kept:      67 -tcoinc(x,y) | tb(y,f1(y)).  [resolve(18,b,13,a)].
kept:      68 -tcoinc(x,y) | -Chron(y).  [resolve(18,b,15,a)].
kept:      69 -Chron(x) | -ftb(y,x) | -ltb(z,x) | -tcoinc(y,u) | -tcoinc(z,w) | Chron(f4(u,w)).  [resolve(19,a,20,a)].
kept:      70 -Chron(x) | -ftb(y,x) | -ltb(z,x) | -tcoinc(y,u) | -tcoinc(z,w) | ftb(f2(u,w),f4(u,w)).  [resolve(19,a,21,a)].
kept:      71 -Chron(x) | -ftb(y,x) | -ltb(z,x) | -tcoinc(y,u) | -tcoinc(z,w) | ltb(f3(u,w),f4(u,w)).  [resolve(19,a,22,a)].
kept:      72 -Chron(x) | -ftb(y,x) | -ltb(z,x) | -tcoinc(y,u) | -tcoinc(z,w) | tcoinc(f2(u,w),u).  [resolve(19,a,23,a)].
kept:      73 -Chron(x) | -ftb(y,x) | -ltb(z,x) | -tcoinc(y,u) | -tcoinc(z,w) | tcoinc(f3(u,w),w).  [resolve(19,a,24,a)].
kept:      74 -Chron(x) | -Chron(y) | -ftb(z,x) | -ltb(u,x) | -ftb(w,y) | -ltb(v5,y) | w != z | u != v5 | ftb(v6,x).  [resolve(27,a,30,a)].
kept:      75 -Chron(x) | -Chron(y) | -ftb(z,x) | -ltb(u,x) | -ftb(w,y) | -ltb(v5,y) | w != z | u != v5 | ltb(v6,x).  [resolve(27,a,31,a)].
kept:      76 -Chron(x) | -Chron(y) | -ftb(z,x) | -ltb(u,x) | -ftb(w,y) | -ltb(v5,y) | w != z | u != v5 | ftb(v6,y).  [resolve(27,a,32,a)].
kept:      77 -Chron(x) | -Chron(y) | -ftb(z,x) | -ltb(u,x) | -ftb(w,y) | -ltb(v5,y) | w != z | u != v5 | ltb(v6,y).  [resolve(27,a,33,a)].
kept:      78 -Chron(x) | -Chron(y) | -ftb(z,x) | -ltb(u,x) | -ftb(w,y) | -ltb(v5,y) | w != z | u != v5 | v6 = v7 | -tcoinc(v6,v7).  [resolve(27,a,34,a)].
kept:      79 -Chron(x) | -Chron(y) | -ftb(z,x) | -ltb(u,x) | -ftb(w,y) | -ltb(v5,y) | w != z | u != v5 | v6 = v7 | beforeIP(v6,v7).  [resolve(27,a,35,a)].
kept:      80 -Chron(x) | -Chron(y) | -ftb(z,x) | -ltb(u,x) | -ftb(w,y) | -ltb(v5,y) | w != z | tcoinc(u,v5) | -beforeIP(u,v5) | ftb(v6,x).  [resolve(38,a,30,a)].
kept:      81 -Chron(x) | -Chron(y) | -ftb(z,x) | -ltb(u,x) | -ftb(w,y) | -ltb(v5,y) | w != z | tcoinc(u,v5) | -beforeIP(u,v5) | ltb(v6,x).  [resolve(38,a,31,a)].
kept:      82 -Chron(x) | -Chron(y) | -ftb(z,x) | -ltb(u,x) | -ftb(w,y) | -ltb(v5,y) | w != z | tcoinc(u,v5) | -beforeIP(u,v5) | ftb(v6,y).  [resolve(38,a,32,a)].
kept:      83 -Chron(x) | -Chron(y) | -ftb(z,x) | -ltb(u,x) | -ftb(w,y) | -ltb(v5,y) | w != z | tcoinc(u,v5) | -beforeIP(u,v5) | ltb(v6,y).  [resolve(38,a,33,a)].
kept:      84 -Chron(x) | -Chron(y) | -ftb(z,x) | -ltb(u,x) | -ftb(w,y) | -ltb(v5,y) | w != z | tcoinc(u,v5) | -beforeIP(u,v5) | v6 = v7 | -tcoinc(v6,v7).  [resolve(38,a,34,a)].
kept:      85 -Chron(x) | -Chron(y) | -ftb(z,x) | -ltb(u,x) | -ftb(w,y) | -ltb(v5,y) | w != z | tcoinc(u,v5) | -beforeIP(u,v5) | v6 = v7 | beforeIP(v6,v7).  [resolve(38,a,35,a)].
kept:      86 -Chron(x) | -Chron(y) | -ftb(z,x) | -ltb(u,x) | -ftb(w,y) | -ltb(v5,y) | tcoinc(w,z) | -beforeIP(w,z) | u != v5 | ftb(v6,x).  [resolve(39,a,30,a)].
kept:      87 -Chron(x) | -Chron(y) | -ftb(z,x) | -ltb(u,x) | -ftb(w,y) | -ltb(v5,y) | tcoinc(w,z) | -beforeIP(w,z) | u != v5 | ltb(v6,x).  [resolve(39,a,31,a)].
kept:      88 -Chron(x) | -Chron(y) | -ftb(z,x) | -ltb(u,x) | -ftb(w,y) | -ltb(v5,y) | tcoinc(w,z) | -beforeIP(w,z) | u != v5 | ftb(v6,y).  [resolve(39,a,32,a)].
kept:      89 -Chron(x) | -Chron(y) | -ftb(z,x) | -ltb(u,x) | -ftb(w,y) | -ltb(v5,y) | tcoinc(w,z) | -beforeIP(w,z) | u != v5 | ltb(v6,y).  [resolve(39,a,33,a)].
kept:      90 -Chron(x) | -Chron(y) | -ftb(z,x) | -ltb(u,x) | -ftb(w,y) | -ltb(v5,y) | tcoinc(w,z) | -beforeIP(w,z) | u != v5 | v6 = v7 | -tcoinc(v6,v7).  [resolve(39,a,34,a)].
kept:      91 -Chron(x) | -Chron(y) | -ftb(z,x) | -ltb(u,x) | -ftb(w,y) | -ltb(v5,y) | tcoinc(w,z) | -beforeIP(w,z) | u != v5 | v6 = v7 | beforeIP(v6,v7).  [resolve(39,a,35,a)].
kept:      92 -Chron(x) | -Chron(y) | -ftb(z,x) | -ltb(u,x) | -ftb(w,y) | -ltb(v5,y) | tcoinc(w,z) | -beforeIP(w,z) | tcoinc(u,v5) | -beforeIP(u,v5) | ftb(v6,x).  [resolve(40,a,30,a)].
kept:      93 -Chron(x) | -Chron(y) | -ftb(z,x) | -ltb(u,x) | -ftb(w,y) | -ltb(v5,y) | tcoinc(w,z) | -beforeIP(w,z) | tcoinc(u,v5) | -beforeIP(u,v5) | ltb(v6,x).  [resolve(40,a,31,a)].
kept:      94 -Chron(x) | -Chron(y) | -ftb(z,x) | -ltb(u,x) | -ftb(w,y) | -ltb(v5,y) | tcoinc(w,z) | -beforeIP(w,z) | tcoinc(u,v5) | -beforeIP(u,v5) | ftb(v6,y).  [resolve(40,a,32,a)].
kept:      95 -Chron(x) | -Chron(y) | -ftb(z,x) | -ltb(u,x) | -ftb(w,y) | -ltb(v5,y) | tcoinc(w,z) | -beforeIP(w,z) | tcoinc(u,v5) | -beforeIP(u,v5) | ltb(v6,y).  [resolve(40,a,33,a)].
kept:      96 -Chron(x) | -Chron(y) | -ftb(z,x) | -ltb(u,x) | -ftb(w,y) | -ltb(v5,y) | tcoinc(w,z) | -beforeIP(w,z) | tcoinc(u,v5) | -beforeIP(u,v5) | v6 = v7 | -tcoinc(v6,v7).  [resolve(40,a,34,a)].
kept:      97 -Chron(x) | -Chron(y) | -ftb(z,x) | -ltb(u,x) | -ftb(w,y) | -ltb(v5,y) | tcoinc(w,z) | -beforeIP(w,z) | tcoinc(u,v5) | -beforeIP(u,v5) | v6 = v7 | beforeIP(v6,v7).  [resolve(40,a,35,a)].
kept:      98 -Chron(x) | -ftb(y,x) | -ltb(y,x) | -tcoinc(y,z) | Chron(f4(z,z)).  [factor(69,d,e)].
kept:      99 -Chron(x) | -ftb(y,x) | -ltb(y,x) | -tcoinc(y,z) | ftb(f2(z,z),f4(z,z)).  [factor(70,d,e)].
kept:      100 -Chron(x) | -ftb(y,x) | -ltb(y,x) | -tcoinc(y,z) | ltb(f3(z,z),f4(z,z)).  [factor(71,d,e)].
kept:      101 -Chron(x) | -ftb(y,x) | -ltb(y,x) | -tcoinc(y,z) | tcoinc(f2(z,z),z).  [factor(72,d,e)].
kept:      102 -Chron(x) | -ftb(y,x) | -ltb(y,x) | -tcoinc(y,z) | tcoinc(f3(z,z),z).  [factor(73,d,e)].
kept:      103 -Chron(x) | -ftb(y,x) | -ltb(z,x) | -ftb(u,x) | -ltb(w,x) | u != y | z != w | ftb(v5,x).  [factor(74,a,b)].
kept:      104 -Chron(x) | -ftb(y,x) | -ltb(z,x) | -ltb(u,x) | z != u | ftb(w,x).  [factor(74,c,e),xx(f),merge(b)].
kept:      105 -Chron(x) | -ftb(y,x) | -ltb(z,x) | -ftb(u,x) | u != y | ftb(w,x).  [factor(74,d,f),xx(g),merge(b)].
kept:      106 -Chron(x) | -Chron(y) | -ftb(z,x) | -ltb(u,x) | -ftb(u,y) | -ltb(z,y) | u != z | ftb(w,x).  [factor(74,g,h)].
kept:      107 -Chron(x) | -ftb(y,x) | -ltb(z,x) | -ftb(u,x) | -ltb(w,x) | u != y | z != w | ltb(v5,x).  [factor(75,a,b)].
kept:      108 -Chron(x) | -ftb(y,x) | -ltb(z,x) | -ltb(u,x) | z != u | ltb(w,x).  [factor(75,c,e),xx(f),merge(b)].
kept:      109 -Chron(x) | -ftb(y,x) | -ltb(z,x) | -ftb(u,x) | u != y | ltb(w,x).  [factor(75,d,f),xx(g),merge(b)].
kept:      110 -Chron(x) | -Chron(y) | -ftb(z,x) | -ltb(u,x) | -ftb(u,y) | -ltb(z,y) | u != z | ltb(w,x).  [factor(75,g,h)].
kept:      111 -Chron(x) | -Chron(y) | -ftb(z,x) | -ltb(u,x) | -ftb(u,y) | -ltb(z,y) | u != z | ftb(w,y).  [factor(76,g,h)].
kept:      112 -Chron(x) | -Chron(y) | -ftb(z,x) | -ltb(u,x) | -ftb(u,y) | -ltb(z,y) | u != z | ltb(w,y).  [factor(77,g,h)].
kept:      113 -Chron(x) | -ftb(y,x) | -ltb(z,x) | -ftb(u,x) | -ltb(w,x) | u != y | z != w | v5 = v6 | -tcoinc(v5,v6).  [factor(78,a,b)].
kept:      114 -Chron(x) | -ftb(y,x) | -ltb(z,x) | -ltb(u,x) | z != u | w = v5 | -tcoinc(w,v5).  [factor(78,c,e),xx(f),merge(b)].
kept:      115 -Chron(x) | -ftb(y,x) | -ltb(z,x) | -ftb(u,x) | u != y | w = v5 | -tcoinc(w,v5).  [factor(78,d,f),xx(g),merge(b)].
kept:      116 -Chron(x) | -Chron(y) | -ftb(z,x) | -ltb(u,x) | -ftb(u,y) | -ltb(z,y) | u != z | w = v5 | -tcoinc(w,v5).  [factor(78,g,h)].
kept:      117 -Chron(x) | -ftb(y,x) | -ltb(z,x) | -ftb(u,x) | -ltb(w,x) | u != y | z != w | v5 = v6 | beforeIP(v5,v6).  [factor(79,a,b)].
kept:      118 -Chron(x) | -ftb(y,x) | -ltb(z,x) | -ltb(u,x) | z != u | w = v5 | beforeIP(w,v5).  [factor(79,c,e),xx(f),merge(b)].
kept:      119 -Chron(x) | -ftb(y,x) | -ltb(z,x) | -ftb(u,x) | u != y | w = v5 | beforeIP(w,v5).  [factor(79,d,f),xx(g),merge(b)].
kept:      120 -Chron(x) | -Chron(y) | -ftb(z,x) | -ltb(u,x) | -ftb(u,y) | -ltb(z,y) | u != z | w = v5 | beforeIP(w,v5).  [factor(79,g,h)].
kept:      121 -Chron(x) | -ftb(y,x) | -ltb(z,x) | -ltb(u,x) | tcoinc(z,u) | -beforeIP(z,u) | ftb(w,x).  [factor(80,c,e),xx(f),merge(b)].
kept:      122 -Chron(x) | -ftb(y,x) | -ltb(z,x) | -ltb(u,x) | tcoinc(z,u) | -beforeIP(z,u) | ltb(w,x).  [factor(81,c,e),xx(f),merge(b)].
kept:      123 -Chron(x) | -ftb(y,x) | -ltb(z,x) | -ltb(u,x) | tcoinc(z,u) | -beforeIP(z,u) | w = v5 | -tcoinc(w,v5).  [factor(84,c,e),xx(f),merge(b)].
kept:      124 -Chron(x) | -ftb(y,x) | -ltb(z,x) | -ltb(u,x) | tcoinc(z,u) | -beforeIP(z,u) | w = v5 | beforeIP(w,v5).  [factor(85,c,e),xx(f),merge(b)].
kept:      125 -Chron(x) | -ftb(y,x) | -ltb(z,x) | -ftb(u,x) | tcoinc(u,y) | -beforeIP(u,y) | ftb(w,x).  [factor(86,d,f),xx(h),merge(b)].
kept:      126 -Chron(x) | -ftb(y,x) | -ltb(z,x) | -ftb(u,x) | tcoinc(u,y) | -beforeIP(u,y) | ltb(w,x).  [factor(87,d,f),xx(h),merge(b)].
kept:      127 -Chron(x) | -ftb(y,x) | -ltb(z,x) | -ftb(u,x) | tcoinc(u,y) | -beforeIP(u,y) | w = v5 | -tcoinc(w,v5).  [factor(90,d,f),xx(h),merge(b)].
kept:      128 -Chron(x) | -ftb(y,x) | -ltb(z,x) | -ftb(u,x) | tcoinc(u,y) | -beforeIP(u,y) | w = v5 | beforeIP(w,v5).  [factor(91,d,f),xx(h),merge(b)].
kept:      129 -Chron(x) | -Chron(y) | -ftb(z,x) | -ltb(u,x) | -ftb(u,y) | -ltb(z,y) | tcoinc(u,z) | -beforeIP(u,z) | ftb(w,x).  [factor(92,g,i),merge(i)].
kept:      130 -Chron(x) | -Chron(y) | -ftb(z,x) | -ltb(u,x) | -ftb(u,y) | -ltb(z,y) | tcoinc(u,z) | -beforeIP(u,z) | ltb(w,x).  [factor(93,g,i),merge(i)].
kept:      131 -Chron(x) | -Chron(y) | -ftb(z,x) | -ltb(u,x) | -ftb(u,y) | -ltb(z,y) | tcoinc(u,z) | -beforeIP(u,z) | ftb(w,y).  [factor(94,g,i),merge(i)].
kept:      132 -Chron(x) | -Chron(y) | -ftb(z,x) | -ltb(u,x) | -ftb(u,y) | -ltb(z,y) | tcoinc(u,z) | -beforeIP(u,z) | ltb(w,y).  [factor(95,g,i),merge(i)].
kept:      133 -Chron(x) | -Chron(y) | -ftb(z,x) | -ltb(u,x) | -ftb(u,y) | -ltb(z,y) | tcoinc(u,z) | -beforeIP(u,z) | w = v5 | -tcoinc(w,v5).  [factor(96,g,i),merge(i)].
kept:      134 -Chron(x) | -Chron(y) | -ftb(z,x) | -ltb(u,x) | -ftb(u,y) | -ltb(z,y) | tcoinc(u,z) | -beforeIP(u,z) | w = v5 | beforeIP(w,v5).  [factor(97,g,i),merge(i)].
kept:      135 -Chron(x) | -ftb(y,x) | -ltb(z,x) | ftb(u,x).  [factor(104,c,d),xx(d)].
kept:      136 -Chron(x) | -ftb(y,x) | -ltb(z,x) | ltb(u,x).  [factor(108,c,d),xx(d)].
kept:      137 -Chron(x) | -ftb(y,x) | -ltb(z,x) | u = w | -tcoinc(u,w).  [factor(114,c,d),xx(d)].
kept:      138 -Chron(x) | -ftb(y,x) | -ltb(z,x) | u = w | beforeIP(u,w).  [factor(118,c,d),xx(d)].

============================== end of process initial clauses ========

============================== CLAUSES FOR SEARCH ====================

% Clauses after input processing:

formulas(usable).
end_of_list.

formulas(sos).
41 -tb(x,y) | ftb(x,y) | ltb(x,y) # label(D8).  [clausify(2)].
42 tb(x,y) | -ftb(x,y) # label(D8).  [clausify(2)].
43 tb(x,y) | -ltb(x,y) # label(D8).  [clausify(2)].
44 -during(x,y) | Chron(x) # label(D4).  [clausify(4)].
45 -during(x,y) | Chron(y) # label(D4).  [clausify(4)].
46 -ftb(x,y) | Chron(y) # label(begin_IP).  [clausify(6)].
47 ft(x) != y | ftb(y,x) # label(D11).  [clausify(9)].
48 ft(x) = y | -ftb(y,x) # label(D11).  [clausify(9)].
49 lt(x) != y | ltb(y,x) # label(D12).  [clausify(10)].
50 lt(x) = y | -ltb(y,x) # label(D12).  [clausify(10)].
51 Chron(c1) # label(A30).  [deny(11)].
52 Chron(c2) # label(A30).  [deny(11)].
53 Chron(c3) # label(A30).  [deny(11)].
54 ft(c3) = ft(c2) # label(A30).  [deny(11)].
55 tcoinc(lt(c3),ft(c1)) # label(A30).  [deny(11)].
56 Chron(c4) # label(A30).  [deny(11)].
57 tcoinc(ft(c4),lt(c1)) # label(A30).  [deny(11)].
58 lt(c4) = lt(c2) # label(A30).  [deny(11)].
59 -during(c1,c2) # label(A30).  [deny(11)].
60 -tb(x,y) | tb(x,f1(x)).  [resolve(12,a,13,a)].
61 Chron(x) | tb(x,f1(x)).  [resolve(14,b,13,a)].
62 -Chron(x) | -tb(x,y).  [resolve(15,a,12,a)].
63 -ftb(x,y) | tb(x,f1(x)).  [resolve(16,b,13,a)].
64 -ftb(x,y) | -Chron(x).  [resolve(16,b,15,a)].
65 -tcoinc(x,y) | tb(x,f1(x)).  [resolve(17,b,13,a)].
66 -tcoinc(x,y) | -Chron(x).  [resolve(17,b,15,a)].
67 -tcoinc(x,y) | tb(y,f1(y)).  [resolve(18,b,13,a)].
68 -tcoinc(x,y) | -Chron(y).  [resolve(18,b,15,a)].
69 -Chron(x) | -ftb(y,x) | -ltb(z,x) | -tcoinc(y,u) | -tcoinc(z,w) | Chron(f4(u,w)).  [resolve(19,a,20,a)].
70 -Chron(x) | -ftb(y,x) | -ltb(z,x) | -tcoinc(y,u) | -tcoinc(z,w) | ftb(f2(u,w),f4(u,w)).  [resolve(19,a,21,a)].
71 -Chron(x) | -ftb(y,x) | -ltb(z,x) | -tcoinc(y,u) | -tcoinc(z,w) | ltb(f3(u,w),f4(u,w)).  [resolve(19,a,22,a)].
72 -Chron(x) | -ftb(y,x) | -ltb(z,x) | -tcoinc(y,u) | -tcoinc(z,w) | tcoinc(f2(u,w),u).  [resolve(19,a,23,a)].
73 -Chron(x) | -ftb(y,x) | -ltb(z,x) | -tcoinc(y,u) | -tcoinc(z,w) | tcoinc(f3(u,w),w).  [resolve(19,a,24,a)].
98 -Chron(x) | -ftb(y,x) | -ltb(y,x) | -tcoinc(y,z) | Chron(f4(z,z)).  [factor(69,d,e)].
99 -Chron(x) | -ftb(y,x) | -ltb(y,x) | -tcoinc(y,z) | ftb(f2(z,z),f4(z,z)).  [factor(70,d,e)].
100 -Chron(x) | -ftb(y,x) | -ltb(y,x) | -tcoinc(y,z) | ltb(f3(z,z),f4(z,z)).  [factor(71,d,e)].
101 -Chron(x) | -ftb(y,x) | -ltb(y,x) | -tcoinc(y,z) | tcoinc(f2(z,z),z).  [factor(72,d,e)].
102 -Chron(x) | -ftb(y,x) | -ltb(y,x) | -tcoinc(y,z) | tcoinc(f3(z,z),z).  [factor(73,d,e)].
135 -Chron(x) | -ftb(y,x) | -ltb(z,x) | ftb(u,x).  [factor(104,c,d),xx(d)].
136 -Chron(x) | -ftb(y,x) | -ltb(z,x) | ltb(u,x).  [factor(108,c,d),xx(d)].
137 -Chron(x) | -ftb(y,x) | -ltb(z,x) | u = w | -tcoinc(u,w).  [factor(114,c,d),xx(d)].
138 -Chron(x) | -ftb(y,x) | -ltb(z,x) | u = w | beforeIP(u,w).  [factor(118,c,d),xx(d)].
end_of_list.

formulas(demodulators).
54 ft(c3) = ft(c2) # label(A30).  [deny(11)].
58 lt(c4) = lt(c2) # label(A30).  [deny(11)].
end_of_list.

============================== end of clauses for search =============

============================== SEARCH ================================

% Starting search at 0.01 seconds.

given #1 (I,wt=9): 41 -tb(x,y) | ftb(x,y) | ltb(x,y) # label(D8).  [clausify(2)].

given #2 (I,wt=6): 42 tb(x,y) | -ftb(x,y) # label(D8).  [clausify(2)].

given #3 (I,wt=6): 43 tb(x,y) | -ltb(x,y) # label(D8).  [clausify(2)].

given #4 (I,wt=5): 44 -during(x,y) | Chron(x) # label(D4).  [clausify(4)].

given #5 (I,wt=5): 45 -during(x,y) | Chron(y) # label(D4).  [clausify(4)].

given #6 (I,wt=5): 46 -ftb(x,y) | Chron(y) # label(begin_IP).  [clausify(6)].

given #7 (I,wt=7): 47 ft(x) != y | ftb(y,x) # label(D11).  [clausify(9)].

given #8 (I,wt=7): 48 ft(x) = y | -ftb(y,x) # label(D11).  [clausify(9)].

given #9 (I,wt=7): 49 lt(x) != y | ltb(y,x) # label(D12).  [clausify(10)].

given #10 (I,wt=7): 50 lt(x) = y | -ltb(y,x) # label(D12).  [clausify(10)].

given #11 (I,wt=2): 51 Chron(c1) # label(A30).  [deny(11)].

given #12 (I,wt=2): 52 Chron(c2) # label(A30).  [deny(11)].

given #13 (I,wt=2): 53 Chron(c3) # label(A30).  [deny(11)].

given #14 (I,wt=5): 54 ft(c3) = ft(c2) # label(A30).  [deny(11)].

given #15 (I,wt=5): 55 tcoinc(lt(c3),ft(c1)) # label(A30).  [deny(11)].

given #16 (I,wt=2): 56 Chron(c4) # label(A30).  [deny(11)].

given #17 (I,wt=5): 57 tcoinc(ft(c4),lt(c1)) # label(A30).  [deny(11)].

given #18 (I,wt=5): 58 lt(c4) = lt(c2) # label(A30).  [deny(11)].

given #19 (I,wt=3): 59 -during(c1,c2) # label(A30).  [deny(11)].

given #20 (I,wt=7): 60 -tb(x,y) | tb(x,f1(x)).  [resolve(12,a,13,a)].

given #21 (I,wt=6): 61 Chron(x) | tb(x,f1(x)).  [resolve(14,b,13,a)].

given #22 (I,wt=5): 62 -Chron(x) | -tb(x,y).  [resolve(15,a,12,a)].

given #23 (I,wt=7): 63 -ftb(x,y) | tb(x,f1(x)).  [resolve(16,b,13,a)].

given #24 (I,wt=5): 64 -ftb(x,y) | -Chron(x).  [resolve(16,b,15,a)].

given #25 (I,wt=7): 65 -tcoinc(x,y) | tb(x,f1(x)).  [resolve(17,b,13,a)].

given #26 (I,wt=5): 66 -tcoinc(x,y) | -Chron(x).  [resolve(17,b,15,a)].

given #27 (I,wt=7): 67 -tcoinc(x,y) | tb(y,f1(y)).  [resolve(18,b,13,a)].

given #28 (I,wt=5): 68 -tcoinc(x,y) | -Chron(y).  [resolve(18,b,15,a)].

given #29 (I,wt=18): 69 -Chron(x) | -ftb(y,x) | -ltb(z,x) | -tcoinc(y,u) | -tcoinc(z,w) | Chron(f4(u,w)).  [resolve(19,a,20,a)].

given #30 (I,wt=21): 70 -Chron(x) | -ftb(y,x) | -ltb(z,x) | -tcoinc(y,u) | -tcoinc(z,w) | ftb(f2(u,w),f4(u,w)).  [resolve(19,a,21,a)].

given #31 (I,wt=21): 71 -Chron(x) | -ftb(y,x) | -ltb(z,x) | -tcoinc(y,u) | -tcoinc(z,w) | ltb(f3(u,w),f4(u,w)).  [resolve(19,a,22,a)].

given #32 (I,wt=19): 72 -Chron(x) | -ftb(y,x) | -ltb(z,x) | -tcoinc(y,u) | -tcoinc(z,w) | tcoinc(f2(u,w),u).  [resolve(19,a,23,a)].

given #33 (I,wt=19): 73 -Chron(x) | -ftb(y,x) | -ltb(z,x) | -tcoinc(y,u) | -tcoinc(z,w) | tcoinc(f3(u,w),w).  [resolve(19,a,24,a)].

given #34 (I,wt=15): 98 -Chron(x) | -ftb(y,x) | -ltb(y,x) | -tcoinc(y,z) | Chron(f4(z,z)).  [factor(69,d,e)].

given #35 (I,wt=18): 99 -Chron(x) | -ftb(y,x) | -ltb(y,x) | -tcoinc(y,z) | ftb(f2(z,z),f4(z,z)).  [factor(70,d,e)].

given #36 (I,wt=18): 100 -Chron(x) | -ftb(y,x) | -ltb(y,x) | -tcoinc(y,z) | ltb(f3(z,z),f4(z,z)).  [factor(71,d,e)].

given #37 (I,wt=16): 101 -Chron(x) | -ftb(y,x) | -ltb(y,x) | -tcoinc(y,z) | tcoinc(f2(z,z),z).  [factor(72,d,e)].

given #38 (I,wt=16): 102 -Chron(x) | -ftb(y,x) | -ltb(y,x) | -tcoinc(y,z) | tcoinc(f3(z,z),z).  [factor(73,d,e)].

given #39 (I,wt=11): 135 -Chron(x) | -ftb(y,x) | -ltb(z,x) | ftb(u,x).  [factor(104,c,d),xx(d)].

given #40 (I,wt=11): 136 -Chron(x) | -ftb(y,x) | -ltb(z,x) | ltb(u,x).  [factor(108,c,d),xx(d)].

given #41 (I,wt=14): 137 -Chron(x) | -ftb(y,x) | -ltb(z,x) | u = w | -tcoinc(u,w).  [factor(114,c,d),xx(d)].

given #42 (I,wt=14): 138 -Chron(x) | -ftb(y,x) | -ltb(z,x) | u = w | beforeIP(u,w).  [factor(118,c,d),xx(d)].

given #43 (A,wt=4): 139 ftb(ft(x),x).  [xx_res(47,a)].

============================== PROOF =================================

% Proof 1 at 0.02 (+ 0.00) seconds.
% Length of proof is 12.
% Level of proof is 4.
% Maximum clause weight is 7.000.
% Given clauses 43.

5 (all x (Chron(x) & -Tb(x) | Tb(x) & -Chron(x))) # label(domain_IP) # label(non_clause).  [assumption].
6 (all x all y (ftb(x,y) -> Tb(x) & Chron(y))) # label(begin_IP) # label(non_clause).  [assumption].
9 ft(x) = u <-> ftb(u,x) # label(D11) # label(non_clause).  [assumption].
15 -Tb(x) | -Chron(x) # label(domain_IP).  [clausify(5)].
16 -ftb(x,y) | Tb(x) # label(begin_IP).  [clausify(6)].
46 -ftb(x,y) | Chron(y) # label(begin_IP).  [clausify(6)].
47 ft(x) != y | ftb(y,x) # label(D11).  [clausify(9)].
64 -ftb(x,y) | -Chron(x).  [resolve(16,b,15,a)].
139 ftb(ft(x),x).  [xx_res(47,a)].
202 -Chron(ft(x)).  [resolve(139,a,64,a)].
204 Chron(x).  [resolve(139,a,46,a)].
205 $F.  [resolve(204,a,202,a)].

============================== end of proof ==========================

============================== STATISTICS ============================

Given=43. Generated=293. Kept=164. proofs=1.
Usable=43. Sos=62. Demods=2. Limbo=2, Disabled=144. Hints=0.
Kept_by_rule=0, Deleted_by_rule=0.
Forward_subsumed=129. Back_subsumed=56.
Sos_limit_deleted=0. Sos_displaced=0. Sos_removed=0.
New_demodulators=2 (0 lex), Back_demodulated=0. Back_unit_deleted=0.
Demod_attempts=2552. Demod_rewrites=2.
Res_instance_prunes=0. Para_instance_prunes=0. Basic_paramod_prunes=0.
Nonunit_fsub_feature_tests=585. Nonunit_bsub_feature_tests=466.
Megabytes=0.37.
User_CPU=0.02, System_CPU=0.00, Wall_clock=0.

============================== end of statistics =====================

============================== end of search =========================

THEOREM PROVED

Exiting with 1 proof.

Process 7829 exit (max_proofs) Mon Nov  5 18:42:12 2018
