============================== Prover9 ===============================
Prover9 (64) version 2009-11A, November 2009.
Process 7270 was started by frauke on frauke-LENOVO-YOGA3-11,
Mon Nov  5 18:29:17 2018
The command was "prover9 -f prover_input_files/test_input_file_A8.in".
============================== end of head ===========================

============================== INPUT =================================

% Reading from file prover_input_files/test_input_file_A8.in

set(ignore_option_dependencies).

formulas(assumptions).
Tb(x) <-> (exists y tb(x,y)) # label(D1).
tb(x,y) <-> ftb(x,y) | ltb(x,y) # label(D8).
before(x,y) <-> (exists u exists v exists z (Chron(z) & ftb(u,z) & ltb(v,z) & tcoinc(u,x) & tcoinc(v,y))) # label(D13).
(all x all y (ltb(x,y) -> Tb(x) & Chron(y))) # label(end_IP).
(all x all y (beforeIP(x,y) -> -beforeIP(y,x))) # label(IP2).
(all x all y all z (ltb(x,z) & ltb(y,z) -> x = y)) # label(IP8_2).
(all x (Tb(x) -> tcoinc(x,x))) # label(tcoinc_reflexivity).
tpart(x,y) <-> Chron(x) & Chron(y) & ftb(u,x) & ltb(w,x) & ftb(v,y) & ltb(z,y) & (v != u -> -tcoinc(v,u) & beforeIP(v,u)) & (w != z -> -tcoinc(w,z) & beforeIP(w,z)) # label(B5).
beforeIP(x,y) <-> (tcoinc(x,y) -> LTb(x) & FTb(y)) & (-tcoinc(x,y) -> before(x,y)) # label(beforeIP).
end_of_list.

formulas(goals).
(all x all y (tpart(x,y) & tpart(y,x) -> x = y)) # label(A8).
end_of_list.

============================== end of input ==========================

% Enabling option dependencies (ignore applies only on input).

============================== PROCESS NON-CLAUSAL FORMULAS ==========

% Formulas that are not ordinary clauses:
1 Tb(x) <-> (exists y tb(x,y)) # label(D1) # label(non_clause).  [assumption].
2 tb(x,y) <-> ftb(x,y) | ltb(x,y) # label(D8) # label(non_clause).  [assumption].
3 before(x,y) <-> (exists u exists v exists z (Chron(z) & ftb(u,z) & ltb(v,z) & tcoinc(u,x) & tcoinc(v,y))) # label(D13) # label(non_clause).  [assumption].
4 (all x all y (ltb(x,y) -> Tb(x) & Chron(y))) # label(end_IP) # label(non_clause).  [assumption].
5 (all x all y (beforeIP(x,y) -> -beforeIP(y,x))) # label(IP2) # label(non_clause).  [assumption].
6 (all x all y all z (ltb(x,z) & ltb(y,z) -> x = y)) # label(IP8_2) # label(non_clause).  [assumption].
7 (all x (Tb(x) -> tcoinc(x,x))) # label(tcoinc_reflexivity) # label(non_clause).  [assumption].
8 tpart(x,y) <-> Chron(x) & Chron(y) & ftb(u,x) & ltb(w,x) & ftb(v,y) & ltb(z,y) & (v != u -> -tcoinc(v,u) & beforeIP(v,u)) & (w != z -> -tcoinc(w,z) & beforeIP(w,z)) # label(B5) # label(non_clause).  [assumption].
9 beforeIP(x,y) <-> (tcoinc(x,y) -> LTb(x) & FTb(y)) & (-tcoinc(x,y) -> before(x,y)) # label(beforeIP) # label(non_clause).  [assumption].
10 (all x all y (tpart(x,y) & tpart(y,x) -> x = y)) # label(A8) # label(non_clause) # label(goal).  [goal].

============================== end of process non-clausal formulas ===

============================== PROCESS INITIAL CLAUSES ===============

% Clauses before input processing:

formulas(usable).
end_of_list.

formulas(sos).
-Tb(x) | tb(x,f1(x)) # label(D1).  [clausify(1)].
Tb(x) | -tb(x,y) # label(D1).  [clausify(1)].
-tb(x,y) | ftb(x,y) | ltb(x,y) # label(D8).  [clausify(2)].
tb(x,y) | -ftb(x,y) # label(D8).  [clausify(2)].
tb(x,y) | -ltb(x,y) # label(D8).  [clausify(2)].
-before(x,y) | Chron(f4(x,y)) # label(D13).  [clausify(3)].
-before(x,y) | ftb(f2(x,y),f4(x,y)) # label(D13).  [clausify(3)].
-before(x,y) | ltb(f3(x,y),f4(x,y)) # label(D13).  [clausify(3)].
-before(x,y) | tcoinc(f2(x,y),x) # label(D13).  [clausify(3)].
-before(x,y) | tcoinc(f3(x,y),y) # label(D13).  [clausify(3)].
before(x,y) | -Chron(z) | -ftb(u,z) | -ltb(w,z) | -tcoinc(u,x) | -tcoinc(w,y) # label(D13).  [clausify(3)].
-ltb(x,y) | Tb(x) # label(end_IP).  [clausify(4)].
-ltb(x,y) | Chron(y) # label(end_IP).  [clausify(4)].
-beforeIP(x,y) | -beforeIP(y,x) # label(IP2).  [clausify(5)].
-ltb(x,y) | -ltb(z,y) | z = x # label(IP8_2).  [clausify(6)].
-Tb(x) | tcoinc(x,x) # label(tcoinc_reflexivity).  [clausify(7)].
-tpart(x,y) | Chron(x) # label(B5).  [clausify(8)].
-tpart(x,y) | Chron(y) # label(B5).  [clausify(8)].
-tpart(x,y) | ftb(z,x) # label(B5).  [clausify(8)].
-tpart(x,y) | ltb(z,x) # label(B5).  [clausify(8)].
-tpart(x,y) | ftb(z,y) # label(B5).  [clausify(8)].
-tpart(x,y) | ltb(z,y) # label(B5).  [clausify(8)].
-tpart(x,y) | z = u | -tcoinc(z,u) # label(B5).  [clausify(8)].
-tpart(x,y) | z = u | beforeIP(z,u) # label(B5).  [clausify(8)].
-tpart(x,y) | z = u | -tcoinc(z,u) # label(B5).  [clausify(8)].
-tpart(x,y) | z = u | beforeIP(z,u) # label(B5).  [clausify(8)].
tpart(x,y) | -Chron(x) | -Chron(y) | -ftb(z,x) | -ltb(u,x) | -ftb(w,y) | -ltb(v5,y) | w != z | u != v5 # label(B5).  [clausify(8)].
tpart(x,y) | -Chron(x) | -Chron(y) | -ftb(z,x) | -ltb(u,x) | -ftb(w,y) | -ltb(v5,y) | w != z | tcoinc(u,v5) | -beforeIP(u,v5) # label(B5).  [clausify(8)].
tpart(x,y) | -Chron(x) | -Chron(y) | -ftb(z,x) | -ltb(u,x) | -ftb(w,y) | -ltb(v5,y) | tcoinc(w,z) | -beforeIP(w,z) | u != v5 # label(B5).  [clausify(8)].
tpart(x,y) | -Chron(x) | -Chron(y) | -ftb(z,x) | -ltb(u,x) | -ftb(w,y) | -ltb(v5,y) | tcoinc(w,z) | -beforeIP(w,z) | tcoinc(u,v5) | -beforeIP(u,v5) # label(B5).  [clausify(8)].
-beforeIP(x,y) | -tcoinc(x,y) | LTb(x) # label(beforeIP).  [clausify(9)].
-beforeIP(x,y) | -tcoinc(x,y) | FTb(y) # label(beforeIP).  [clausify(9)].
-beforeIP(x,y) | tcoinc(x,y) | before(x,y) # label(beforeIP).  [clausify(9)].
beforeIP(x,y) | tcoinc(x,y) | -before(x,y) # label(beforeIP).  [clausify(9)].
beforeIP(x,y) | -LTb(x) | -FTb(y) | -tcoinc(x,y) # label(beforeIP).  [clausify(9)].
beforeIP(x,y) | -LTb(x) | -FTb(y) | -before(x,y) # label(beforeIP).  [clausify(9)].
tpart(c1,c2) # label(A8).  [deny(10)].
tpart(c2,c1) # label(A8).  [deny(10)].
c2 != c1 # label(A8).  [deny(10)].
end_of_list.

formulas(demodulators).
end_of_list.

============================== PREDICATE ELIMINATION =================

Eliminating Tb/1
11 Tb(x) | -tb(x,y) # label(D1).  [clausify(1)].
12 -Tb(x) | tb(x,f1(x)) # label(D1).  [clausify(1)].
Derived: -tb(x,y) | tb(x,f1(x)).  [resolve(11,a,12,a)].
13 -ltb(x,y) | Tb(x) # label(end_IP).  [clausify(4)].
Derived: -ltb(x,y) | tb(x,f1(x)).  [resolve(13,b,12,a)].
14 -Tb(x) | tcoinc(x,x) # label(tcoinc_reflexivity).  [clausify(7)].
Derived: tcoinc(x,x) | -tb(x,y).  [resolve(14,a,11,a)].
Derived: tcoinc(x,x) | -ltb(x,y).  [resolve(14,a,13,b)].

Eliminating before/2
15 before(x,y) | -Chron(z) | -ftb(u,z) | -ltb(w,z) | -tcoinc(u,x) | -tcoinc(w,y) # label(D13).  [clausify(3)].
16 -before(x,y) | Chron(f4(x,y)) # label(D13).  [clausify(3)].
17 -before(x,y) | ftb(f2(x,y),f4(x,y)) # label(D13).  [clausify(3)].
18 -before(x,y) | ltb(f3(x,y),f4(x,y)) # label(D13).  [clausify(3)].
19 -before(x,y) | tcoinc(f2(x,y),x) # label(D13).  [clausify(3)].
20 -before(x,y) | tcoinc(f3(x,y),y) # label(D13).  [clausify(3)].
Derived: -Chron(x) | -ftb(y,x) | -ltb(z,x) | -tcoinc(y,u) | -tcoinc(z,w) | Chron(f4(u,w)).  [resolve(15,a,16,a)].
Derived: -Chron(x) | -ftb(y,x) | -ltb(z,x) | -tcoinc(y,u) | -tcoinc(z,w) | ftb(f2(u,w),f4(u,w)).  [resolve(15,a,17,a)].
Derived: -Chron(x) | -ftb(y,x) | -ltb(z,x) | -tcoinc(y,u) | -tcoinc(z,w) | ltb(f3(u,w),f4(u,w)).  [resolve(15,a,18,a)].
Derived: -Chron(x) | -ftb(y,x) | -ltb(z,x) | -tcoinc(y,u) | -tcoinc(z,w) | tcoinc(f2(u,w),u).  [resolve(15,a,19,a)].
Derived: -Chron(x) | -ftb(y,x) | -ltb(z,x) | -tcoinc(y,u) | -tcoinc(z,w) | tcoinc(f3(u,w),w).  [resolve(15,a,20,a)].
21 -beforeIP(x,y) | tcoinc(x,y) | before(x,y) # label(beforeIP).  [clausify(9)].
Derived: -beforeIP(x,y) | tcoinc(x,y) | Chron(f4(x,y)).  [resolve(21,c,16,a)].
Derived: -beforeIP(x,y) | tcoinc(x,y) | ftb(f2(x,y),f4(x,y)).  [resolve(21,c,17,a)].
Derived: -beforeIP(x,y) | tcoinc(x,y) | ltb(f3(x,y),f4(x,y)).  [resolve(21,c,18,a)].
Derived: -beforeIP(x,y) | tcoinc(x,y) | tcoinc(f2(x,y),x).  [resolve(21,c,19,a)].
Derived: -beforeIP(x,y) | tcoinc(x,y) | tcoinc(f3(x,y),y).  [resolve(21,c,20,a)].
22 beforeIP(x,y) | tcoinc(x,y) | -before(x,y) # label(beforeIP).  [clausify(9)].
Derived: beforeIP(x,y) | tcoinc(x,y) | -Chron(z) | -ftb(u,z) | -ltb(w,z) | -tcoinc(u,x) | -tcoinc(w,y).  [resolve(22,c,15,a)].
23 beforeIP(x,y) | -LTb(x) | -FTb(y) | -before(x,y) # label(beforeIP).  [clausify(9)].
Derived: beforeIP(x,y) | -LTb(x) | -FTb(y) | -Chron(z) | -ftb(u,z) | -ltb(w,z) | -tcoinc(u,x) | -tcoinc(w,y).  [resolve(23,d,15,a)].

Eliminating tpart/2
24 tpart(x,y) | -Chron(x) | -Chron(y) | -ftb(z,x) | -ltb(u,x) | -ftb(w,y) | -ltb(v5,y) | w != z | u != v5 # label(B5).  [clausify(8)].
25 -tpart(x,y) | Chron(x) # label(B5).  [clausify(8)].
26 -tpart(x,y) | Chron(y) # label(B5).  [clausify(8)].
27 -tpart(x,y) | ftb(z,x) # label(B5).  [clausify(8)].
28 -tpart(x,y) | ltb(z,x) # label(B5).  [clausify(8)].
29 -tpart(x,y) | ftb(z,y) # label(B5).  [clausify(8)].
30 -tpart(x,y) | ltb(z,y) # label(B5).  [clausify(8)].
31 -tpart(x,y) | z = u | -tcoinc(z,u) # label(B5).  [clausify(8)].
32 -tpart(x,y) | z = u | beforeIP(z,u) # label(B5).  [clausify(8)].
33 -tpart(x,y) | z = u | -tcoinc(z,u) # label(B5).  [clausify(8)].
34 -tpart(x,y) | z = u | beforeIP(z,u) # label(B5).  [clausify(8)].
Derived: -Chron(x) | -Chron(y) | -ftb(z,x) | -ltb(u,x) | -ftb(w,y) | -ltb(v5,y) | w != z | u != v5 | ftb(v6,x).  [resolve(24,a,27,a)].
Derived: -Chron(x) | -Chron(y) | -ftb(z,x) | -ltb(u,x) | -ftb(w,y) | -ltb(v5,y) | w != z | u != v5 | ltb(v6,x).  [resolve(24,a,28,a)].
Derived: -Chron(x) | -Chron(y) | -ftb(z,x) | -ltb(u,x) | -ftb(w,y) | -ltb(v5,y) | w != z | u != v5 | ftb(v6,y).  [resolve(24,a,29,a)].
Derived: -Chron(x) | -Chron(y) | -ftb(z,x) | -ltb(u,x) | -ftb(w,y) | -ltb(v5,y) | w != z | u != v5 | ltb(v6,y).  [resolve(24,a,30,a)].
Derived: -Chron(x) | -Chron(y) | -ftb(z,x) | -ltb(u,x) | -ftb(w,y) | -ltb(v5,y) | w != z | u != v5 | v6 = v7 | -tcoinc(v6,v7).  [resolve(24,a,31,a)].
Derived: -Chron(x) | -Chron(y) | -ftb(z,x) | -ltb(u,x) | -ftb(w,y) | -ltb(v5,y) | w != z | u != v5 | v6 = v7 | beforeIP(v6,v7).  [resolve(24,a,32,a)].
35 tpart(x,y) | -Chron(x) | -Chron(y) | -ftb(z,x) | -ltb(u,x) | -ftb(w,y) | -ltb(v5,y) | w != z | tcoinc(u,v5) | -beforeIP(u,v5) # label(B5).  [clausify(8)].
Derived: -Chron(x) | -Chron(y) | -ftb(z,x) | -ltb(u,x) | -ftb(w,y) | -ltb(v5,y) | w != z | tcoinc(u,v5) | -beforeIP(u,v5) | ftb(v6,x).  [resolve(35,a,27,a)].
Derived: -Chron(x) | -Chron(y) | -ftb(z,x) | -ltb(u,x) | -ftb(w,y) | -ltb(v5,y) | w != z | tcoinc(u,v5) | -beforeIP(u,v5) | ltb(v6,x).  [resolve(35,a,28,a)].
Derived: -Chron(x) | -Chron(y) | -ftb(z,x) | -ltb(u,x) | -ftb(w,y) | -ltb(v5,y) | w != z | tcoinc(u,v5) | -beforeIP(u,v5) | ftb(v6,y).  [resolve(35,a,29,a)].
Derived: -Chron(x) | -Chron(y) | -ftb(z,x) | -ltb(u,x) | -ftb(w,y) | -ltb(v5,y) | w != z | tcoinc(u,v5) | -beforeIP(u,v5) | ltb(v6,y).  [resolve(35,a,30,a)].
Derived: -Chron(x) | -Chron(y) | -ftb(z,x) | -ltb(u,x) | -ftb(w,y) | -ltb(v5,y) | w != z | tcoinc(u,v5) | -beforeIP(u,v5) | v6 = v7 | -tcoinc(v6,v7).  [resolve(35,a,31,a)].
Derived: -Chron(x) | -Chron(y) | -ftb(z,x) | -ltb(u,x) | -ftb(w,y) | -ltb(v5,y) | w != z | tcoinc(u,v5) | -beforeIP(u,v5) | v6 = v7 | beforeIP(v6,v7).  [resolve(35,a,32,a)].
36 tpart(x,y) | -Chron(x) | -Chron(y) | -ftb(z,x) | -ltb(u,x) | -ftb(w,y) | -ltb(v5,y) | tcoinc(w,z) | -beforeIP(w,z) | u != v5 # label(B5).  [clausify(8)].
Derived: -Chron(x) | -Chron(y) | -ftb(z,x) | -ltb(u,x) | -ftb(w,y) | -ltb(v5,y) | tcoinc(w,z) | -beforeIP(w,z) | u != v5 | ftb(v6,x).  [resolve(36,a,27,a)].
Derived: -Chron(x) | -Chron(y) | -ftb(z,x) | -ltb(u,x) | -ftb(w,y) | -ltb(v5,y) | tcoinc(w,z) | -beforeIP(w,z) | u != v5 | ltb(v6,x).  [resolve(36,a,28,a)].
Derived: -Chron(x) | -Chron(y) | -ftb(z,x) | -ltb(u,x) | -ftb(w,y) | -ltb(v5,y) | tcoinc(w,z) | -beforeIP(w,z) | u != v5 | ftb(v6,y).  [resolve(36,a,29,a)].
Derived: -Chron(x) | -Chron(y) | -ftb(z,x) | -ltb(u,x) | -ftb(w,y) | -ltb(v5,y) | tcoinc(w,z) | -beforeIP(w,z) | u != v5 | ltb(v6,y).  [resolve(36,a,30,a)].
Derived: -Chron(x) | -Chron(y) | -ftb(z,x) | -ltb(u,x) | -ftb(w,y) | -ltb(v5,y) | tcoinc(w,z) | -beforeIP(w,z) | u != v5 | v6 = v7 | -tcoinc(v6,v7).  [resolve(36,a,31,a)].
Derived: -Chron(x) | -Chron(y) | -ftb(z,x) | -ltb(u,x) | -ftb(w,y) | -ltb(v5,y) | tcoinc(w,z) | -beforeIP(w,z) | u != v5 | v6 = v7 | beforeIP(v6,v7).  [resolve(36,a,32,a)].
37 tpart(x,y) | -Chron(x) | -Chron(y) | -ftb(z,x) | -ltb(u,x) | -ftb(w,y) | -ltb(v5,y) | tcoinc(w,z) | -beforeIP(w,z) | tcoinc(u,v5) | -beforeIP(u,v5) # label(B5).  [clausify(8)].
Derived: -Chron(x) | -Chron(y) | -ftb(z,x) | -ltb(u,x) | -ftb(w,y) | -ltb(v5,y) | tcoinc(w,z) | -beforeIP(w,z) | tcoinc(u,v5) | -beforeIP(u,v5) | ftb(v6,x).  [resolve(37,a,27,a)].
Derived: -Chron(x) | -Chron(y) | -ftb(z,x) | -ltb(u,x) | -ftb(w,y) | -ltb(v5,y) | tcoinc(w,z) | -beforeIP(w,z) | tcoinc(u,v5) | -beforeIP(u,v5) | ltb(v6,x).  [resolve(37,a,28,a)].
Derived: -Chron(x) | -Chron(y) | -ftb(z,x) | -ltb(u,x) | -ftb(w,y) | -ltb(v5,y) | tcoinc(w,z) | -beforeIP(w,z) | tcoinc(u,v5) | -beforeIP(u,v5) | ftb(v6,y).  [resolve(37,a,29,a)].
Derived: -Chron(x) | -Chron(y) | -ftb(z,x) | -ltb(u,x) | -ftb(w,y) | -ltb(v5,y) | tcoinc(w,z) | -beforeIP(w,z) | tcoinc(u,v5) | -beforeIP(u,v5) | ltb(v6,y).  [resolve(37,a,30,a)].
Derived: -Chron(x) | -Chron(y) | -ftb(z,x) | -ltb(u,x) | -ftb(w,y) | -ltb(v5,y) | tcoinc(w,z) | -beforeIP(w,z) | tcoinc(u,v5) | -beforeIP(u,v5) | v6 = v7 | -tcoinc(v6,v7).  [resolve(37,a,31,a)].
Derived: -Chron(x) | -Chron(y) | -ftb(z,x) | -ltb(u,x) | -ftb(w,y) | -ltb(v5,y) | tcoinc(w,z) | -beforeIP(w,z) | tcoinc(u,v5) | -beforeIP(u,v5) | v6 = v7 | beforeIP(v6,v7).  [resolve(37,a,32,a)].
38 tpart(c1,c2) # label(A8).  [deny(10)].
Derived: Chron(c1).  [resolve(38,a,25,a)].
Derived: Chron(c2).  [resolve(38,a,26,a)].
Derived: ftb(x,c1).  [resolve(38,a,27,a)].
Derived: ltb(x,c1).  [resolve(38,a,28,a)].
Derived: ftb(x,c2).  [resolve(38,a,29,a)].
Derived: ltb(x,c2).  [resolve(38,a,30,a)].
Derived: x = y | -tcoinc(x,y).  [resolve(38,a,31,a)].
Derived: x = y | beforeIP(x,y).  [resolve(38,a,32,a)].
39 tpart(c2,c1) # label(A8).  [deny(10)].

Eliminating LTb/1
40 beforeIP(x,y) | -LTb(x) | -FTb(y) | -tcoinc(x,y) # label(beforeIP).  [clausify(9)].
41 -beforeIP(x,y) | -tcoinc(x,y) | LTb(x) # label(beforeIP).  [clausify(9)].
Derived: beforeIP(x,y) | -FTb(y) | -tcoinc(x,y) | -beforeIP(x,z) | -tcoinc(x,z).  [resolve(40,b,41,c)].
42 beforeIP(x,y) | -LTb(x) | -FTb(y) | -Chron(z) | -ftb(u,z) | -ltb(w,z) | -tcoinc(u,x) | -tcoinc(w,y).  [resolve(23,d,15,a)].
Derived: beforeIP(x,y) | -FTb(y) | -Chron(z) | -ftb(u,z) | -ltb(w,z) | -tcoinc(u,x) | -tcoinc(w,y) | -beforeIP(x,v5) | -tcoinc(x,v5).  [resolve(42,b,41,c)].

Eliminating FTb/1
43 beforeIP(x,y) | -FTb(y) | -tcoinc(x,y) | -beforeIP(x,z) | -tcoinc(x,z).  [resolve(40,b,41,c)].
44 -beforeIP(x,y) | -tcoinc(x,y) | FTb(y) # label(beforeIP).  [clausify(9)].
Derived: beforeIP(x,y) | -tcoinc(x,y) | -beforeIP(x,z) | -tcoinc(x,z) | -beforeIP(u,y) | -tcoinc(u,y).  [resolve(43,b,44,c)].
45 beforeIP(x,y) | -FTb(y) | -Chron(z) | -ftb(u,z) | -ltb(w,z) | -tcoinc(u,x) | -tcoinc(w,y) | -beforeIP(x,v5) | -tcoinc(x,v5).  [resolve(42,b,41,c)].
Derived: beforeIP(x,y) | -Chron(z) | -ftb(u,z) | -ltb(w,z) | -tcoinc(u,x) | -tcoinc(w,y) | -beforeIP(x,v5) | -tcoinc(x,v5) | -beforeIP(v6,y) | -tcoinc(v6,y).  [resolve(45,b,44,c)].

============================== end predicate elimination =============

Auto_denials:  (non-Horn, no changes).

Term ordering decisions:
Predicate symbol precedence:  predicate_order([ =, Chron, ltb, ftb, tcoinc, beforeIP, tb ]).
Function symbol precedence:  function_order([ c1, c2, f2, f3, f4, f1 ]).
After inverse_order:  (no changes).
Unfolding symbols: (none).

Auto_inference settings:
  % set(paramodulation).  % (positive equality literals)
  % set(binary_resolution).  % (non-Horn)
  % set(neg_ur_resolution).  % (non-Horn, less than 100 clauses)

Auto_process settings:
  % set(factor).  % (non-Horn)
  % set(unit_deletion).  % (non-Horn)

kept:      46 -tb(x,y) | ftb(x,y) | ltb(x,y) # label(D8).  [clausify(2)].
kept:      47 tb(x,y) | -ftb(x,y) # label(D8).  [clausify(2)].
kept:      48 tb(x,y) | -ltb(x,y) # label(D8).  [clausify(2)].
kept:      49 -ltb(x,y) | Chron(y) # label(end_IP).  [clausify(4)].
kept:      50 -beforeIP(x,y) | -beforeIP(y,x) # label(IP2).  [clausify(5)].
kept:      51 -ltb(x,y) | -ltb(z,y) | z = x # label(IP8_2).  [clausify(6)].
kept:      52 c2 != c1 # label(A8).  [deny(10)].
kept:      53 -tb(x,y) | tb(x,f1(x)).  [resolve(11,a,12,a)].
kept:      54 -ltb(x,y) | tb(x,f1(x)).  [resolve(13,b,12,a)].
kept:      55 tcoinc(x,x) | -tb(x,y).  [resolve(14,a,11,a)].
kept:      56 tcoinc(x,x) | -ltb(x,y).  [resolve(14,a,13,b)].
kept:      57 -Chron(x) | -ftb(y,x) | -ltb(z,x) | -tcoinc(y,u) | -tcoinc(z,w) | Chron(f4(u,w)).  [resolve(15,a,16,a)].
kept:      58 -Chron(x) | -ftb(y,x) | -ltb(z,x) | -tcoinc(y,u) | -tcoinc(z,w) | ftb(f2(u,w),f4(u,w)).  [resolve(15,a,17,a)].
kept:      59 -Chron(x) | -ftb(y,x) | -ltb(z,x) | -tcoinc(y,u) | -tcoinc(z,w) | ltb(f3(u,w),f4(u,w)).  [resolve(15,a,18,a)].
kept:      60 -Chron(x) | -ftb(y,x) | -ltb(z,x) | -tcoinc(y,u) | -tcoinc(z,w) | tcoinc(f2(u,w),u).  [resolve(15,a,19,a)].
kept:      61 -Chron(x) | -ftb(y,x) | -ltb(z,x) | -tcoinc(y,u) | -tcoinc(z,w) | tcoinc(f3(u,w),w).  [resolve(15,a,20,a)].
kept:      62 -beforeIP(x,y) | tcoinc(x,y) | Chron(f4(x,y)).  [resolve(21,c,16,a)].
kept:      63 -beforeIP(x,y) | tcoinc(x,y) | ftb(f2(x,y),f4(x,y)).  [resolve(21,c,17,a)].
kept:      64 -beforeIP(x,y) | tcoinc(x,y) | ltb(f3(x,y),f4(x,y)).  [resolve(21,c,18,a)].
kept:      65 -beforeIP(x,y) | tcoinc(x,y) | tcoinc(f2(x,y),x).  [resolve(21,c,19,a)].
kept:      66 -beforeIP(x,y) | tcoinc(x,y) | tcoinc(f3(x,y),y).  [resolve(21,c,20,a)].
kept:      67 beforeIP(x,y) | tcoinc(x,y) | -Chron(z) | -ftb(u,z) | -ltb(w,z) | -tcoinc(u,x) | -tcoinc(w,y).  [resolve(22,c,15,a)].
kept:      68 -Chron(x) | -Chron(y) | -ftb(z,x) | -ltb(u,x) | -ftb(w,y) | -ltb(v5,y) | w != z | u != v5 | ftb(v6,x).  [resolve(24,a,27,a)].
kept:      69 -Chron(x) | -Chron(y) | -ftb(z,x) | -ltb(u,x) | -ftb(w,y) | -ltb(v5,y) | w != z | u != v5 | ltb(v6,x).  [resolve(24,a,28,a)].
kept:      70 -Chron(x) | -Chron(y) | -ftb(z,x) | -ltb(u,x) | -ftb(w,y) | -ltb(v5,y) | w != z | u != v5 | ftb(v6,y).  [resolve(24,a,29,a)].
kept:      71 -Chron(x) | -Chron(y) | -ftb(z,x) | -ltb(u,x) | -ftb(w,y) | -ltb(v5,y) | w != z | u != v5 | ltb(v6,y).  [resolve(24,a,30,a)].
kept:      72 -Chron(x) | -Chron(y) | -ftb(z,x) | -ltb(u,x) | -ftb(w,y) | -ltb(v5,y) | w != z | u != v5 | v6 = v7 | -tcoinc(v6,v7).  [resolve(24,a,31,a)].
kept:      73 -Chron(x) | -Chron(y) | -ftb(z,x) | -ltb(u,x) | -ftb(w,y) | -ltb(v5,y) | w != z | u != v5 | v6 = v7 | beforeIP(v6,v7).  [resolve(24,a,32,a)].
kept:      74 -Chron(x) | -Chron(y) | -ftb(z,x) | -ltb(u,x) | -ftb(w,y) | -ltb(v5,y) | w != z | tcoinc(u,v5) | -beforeIP(u,v5) | ftb(v6,x).  [resolve(35,a,27,a)].
kept:      75 -Chron(x) | -Chron(y) | -ftb(z,x) | -ltb(u,x) | -ftb(w,y) | -ltb(v5,y) | w != z | tcoinc(u,v5) | -beforeIP(u,v5) | ltb(v6,x).  [resolve(35,a,28,a)].
kept:      76 -Chron(x) | -Chron(y) | -ftb(z,x) | -ltb(u,x) | -ftb(w,y) | -ltb(v5,y) | w != z | tcoinc(u,v5) | -beforeIP(u,v5) | ftb(v6,y).  [resolve(35,a,29,a)].
kept:      77 -Chron(x) | -Chron(y) | -ftb(z,x) | -ltb(u,x) | -ftb(w,y) | -ltb(v5,y) | w != z | tcoinc(u,v5) | -beforeIP(u,v5) | ltb(v6,y).  [resolve(35,a,30,a)].
kept:      78 -Chron(x) | -Chron(y) | -ftb(z,x) | -ltb(u,x) | -ftb(w,y) | -ltb(v5,y) | w != z | tcoinc(u,v5) | -beforeIP(u,v5) | v6 = v7 | -tcoinc(v6,v7).  [resolve(35,a,31,a)].
kept:      79 -Chron(x) | -Chron(y) | -ftb(z,x) | -ltb(u,x) | -ftb(w,y) | -ltb(v5,y) | w != z | tcoinc(u,v5) | -beforeIP(u,v5) | v6 = v7 | beforeIP(v6,v7).  [resolve(35,a,32,a)].
kept:      80 -Chron(x) | -Chron(y) | -ftb(z,x) | -ltb(u,x) | -ftb(w,y) | -ltb(v5,y) | tcoinc(w,z) | -beforeIP(w,z) | u != v5 | ftb(v6,x).  [resolve(36,a,27,a)].
kept:      81 -Chron(x) | -Chron(y) | -ftb(z,x) | -ltb(u,x) | -ftb(w,y) | -ltb(v5,y) | tcoinc(w,z) | -beforeIP(w,z) | u != v5 | ltb(v6,x).  [resolve(36,a,28,a)].
kept:      82 -Chron(x) | -Chron(y) | -ftb(z,x) | -ltb(u,x) | -ftb(w,y) | -ltb(v5,y) | tcoinc(w,z) | -beforeIP(w,z) | u != v5 | ftb(v6,y).  [resolve(36,a,29,a)].
kept:      83 -Chron(x) | -Chron(y) | -ftb(z,x) | -ltb(u,x) | -ftb(w,y) | -ltb(v5,y) | tcoinc(w,z) | -beforeIP(w,z) | u != v5 | ltb(v6,y).  [resolve(36,a,30,a)].
kept:      84 -Chron(x) | -Chron(y) | -ftb(z,x) | -ltb(u,x) | -ftb(w,y) | -ltb(v5,y) | tcoinc(w,z) | -beforeIP(w,z) | u != v5 | v6 = v7 | -tcoinc(v6,v7).  [resolve(36,a,31,a)].
kept:      85 -Chron(x) | -Chron(y) | -ftb(z,x) | -ltb(u,x) | -ftb(w,y) | -ltb(v5,y) | tcoinc(w,z) | -beforeIP(w,z) | u != v5 | v6 = v7 | beforeIP(v6,v7).  [resolve(36,a,32,a)].
kept:      86 -Chron(x) | -Chron(y) | -ftb(z,x) | -ltb(u,x) | -ftb(w,y) | -ltb(v5,y) | tcoinc(w,z) | -beforeIP(w,z) | tcoinc(u,v5) | -beforeIP(u,v5) | ftb(v6,x).  [resolve(37,a,27,a)].
kept:      87 -Chron(x) | -Chron(y) | -ftb(z,x) | -ltb(u,x) | -ftb(w,y) | -ltb(v5,y) | tcoinc(w,z) | -beforeIP(w,z) | tcoinc(u,v5) | -beforeIP(u,v5) | ltb(v6,x).  [resolve(37,a,28,a)].
kept:      88 -Chron(x) | -Chron(y) | -ftb(z,x) | -ltb(u,x) | -ftb(w,y) | -ltb(v5,y) | tcoinc(w,z) | -beforeIP(w,z) | tcoinc(u,v5) | -beforeIP(u,v5) | ftb(v6,y).  [resolve(37,a,29,a)].
kept:      89 -Chron(x) | -Chron(y) | -ftb(z,x) | -ltb(u,x) | -ftb(w,y) | -ltb(v5,y) | tcoinc(w,z) | -beforeIP(w,z) | tcoinc(u,v5) | -beforeIP(u,v5) | ltb(v6,y).  [resolve(37,a,30,a)].
kept:      90 -Chron(x) | -Chron(y) | -ftb(z,x) | -ltb(u,x) | -ftb(w,y) | -ltb(v5,y) | tcoinc(w,z) | -beforeIP(w,z) | tcoinc(u,v5) | -beforeIP(u,v5) | v6 = v7 | -tcoinc(v6,v7).  [resolve(37,a,31,a)].
kept:      91 -Chron(x) | -Chron(y) | -ftb(z,x) | -ltb(u,x) | -ftb(w,y) | -ltb(v5,y) | tcoinc(w,z) | -beforeIP(w,z) | tcoinc(u,v5) | -beforeIP(u,v5) | v6 = v7 | beforeIP(v6,v7).  [resolve(37,a,32,a)].
kept:      92 Chron(c1).  [resolve(38,a,25,a)].
kept:      93 Chron(c2).  [resolve(38,a,26,a)].
kept:      94 ftb(x,c1).  [resolve(38,a,27,a)].
kept:      95 ltb(x,c1).  [resolve(38,a,28,a)].
kept:      96 ftb(x,c2).  [resolve(38,a,29,a)].
kept:      97 ltb(x,c2).  [resolve(38,a,30,a)].
kept:      98 x = y | -tcoinc(x,y).  [resolve(38,a,31,a)].
kept:      99 x = y | beforeIP(x,y).  [resolve(38,a,32,a)].
kept:      100 beforeIP(x,y) | -tcoinc(x,y) | -beforeIP(x,z) | -tcoinc(x,z) | -beforeIP(u,y) | -tcoinc(u,y).  [resolve(43,b,44,c)].
kept:      101 beforeIP(x,y) | -Chron(z) | -ftb(u,z) | -ltb(w,z) | -tcoinc(u,x) | -tcoinc(w,y) | -beforeIP(x,v5) | -tcoinc(x,v5) | -beforeIP(v6,y) | -tcoinc(v6,y).  [resolve(45,b,44,c)].
kept:      102 -beforeIP(x,x).  [factor(50,a,b)].
kept:      103 -Chron(x) | -ftb(y,x) | -ltb(y,x) | -tcoinc(y,z) | Chron(f4(z,z)).  [factor(57,d,e)].
kept:      104 -Chron(x) | -ftb(y,x) | -ltb(y,x) | -tcoinc(y,z) | ftb(f2(z,z),f4(z,z)).  [factor(58,d,e)].
kept:      105 -Chron(x) | -ftb(y,x) | -ltb(y,x) | -tcoinc(y,z) | ltb(f3(z,z),f4(z,z)).  [factor(59,d,e)].
kept:      106 -Chron(x) | -ftb(y,x) | -ltb(y,x) | -tcoinc(y,z) | tcoinc(f2(z,z),z).  [factor(60,d,e)].
kept:      107 -Chron(x) | -ftb(y,x) | -ltb(y,x) | -tcoinc(y,z) | tcoinc(f3(z,z),z).  [factor(61,d,e)].
kept:      108 tcoinc(x,x) | -Chron(y) | -ftb(z,y) | -ltb(z,y) | -tcoinc(z,x).  [factor(67,f,g),unit_del(a,102)].
kept:      109 -Chron(x) | -ftb(y,x) | -ltb(z,x) | -ftb(u,x) | -ltb(w,x) | u != y | z != w | ftb(v5,x).  [factor(68,a,b)].
kept:      110 -Chron(x) | -ftb(y,x) | -ltb(z,x) | -ltb(u,x) | z != u | ftb(w,x).  [factor(68,c,e),xx(f),merge(b)].
kept:      111 -Chron(x) | -ftb(y,x) | -ltb(z,x) | -ftb(u,x) | u != y | ftb(w,x).  [factor(68,d,f),xx(g),merge(b)].
kept:      112 -Chron(x) | -Chron(y) | -ftb(z,x) | -ltb(u,x) | -ftb(u,y) | -ltb(z,y) | u != z | ftb(w,x).  [factor(68,g,h)].
kept:      113 -Chron(x) | -ftb(y,x) | -ltb(z,x) | -ftb(u,x) | -ltb(w,x) | u != y | z != w | ltb(v5,x).  [factor(69,a,b)].
kept:      114 -Chron(x) | -ftb(y,x) | -ltb(z,x) | -ltb(u,x) | z != u | ltb(w,x).  [factor(69,c,e),xx(f),merge(b)].
kept:      115 -Chron(x) | -ftb(y,x) | -ltb(z,x) | -ftb(u,x) | u != y | ltb(w,x).  [factor(69,d,f),xx(g),merge(b)].
kept:      116 -Chron(x) | -Chron(y) | -ftb(z,x) | -ltb(u,x) | -ftb(u,y) | -ltb(z,y) | u != z | ltb(w,x).  [factor(69,g,h)].
kept:      117 -Chron(x) | -Chron(y) | -ftb(z,x) | -ltb(u,x) | -ftb(u,y) | -ltb(z,y) | u != z | ftb(w,y).  [factor(70,g,h)].
kept:      118 -Chron(x) | -Chron(y) | -ftb(z,x) | -ltb(u,x) | -ftb(u,y) | -ltb(z,y) | u != z | ltb(w,y).  [factor(71,g,h)].
kept:      119 -Chron(x) | -ftb(y,x) | -ltb(z,x) | -ltb(u,x) | tcoinc(z,u) | -beforeIP(z,u) | ftb(w,x).  [factor(74,c,e),xx(f),merge(b)].
kept:      120 -Chron(x) | -ftb(y,x) | -ltb(z,x) | -ltb(u,x) | tcoinc(z,u) | -beforeIP(z,u) | ltb(w,x).  [factor(75,c,e),xx(f),merge(b)].
kept:      121 -Chron(x) | -ftb(y,x) | -ltb(z,x) | -ftb(u,x) | tcoinc(u,y) | -beforeIP(u,y) | ftb(w,x).  [factor(80,d,f),xx(h),merge(b)].
kept:      122 -Chron(x) | -ftb(y,x) | -ltb(z,x) | -ftb(u,x) | tcoinc(u,y) | -beforeIP(u,y) | ltb(w,x).  [factor(81,d,f),xx(h),merge(b)].
kept:      123 -Chron(x) | -Chron(y) | -ftb(z,x) | -ltb(u,x) | -ftb(u,y) | -ltb(z,y) | tcoinc(u,z) | -beforeIP(u,z) | ftb(w,x).  [factor(86,g,i),merge(i)].
kept:      124 -Chron(x) | -Chron(y) | -ftb(z,x) | -ltb(u,x) | -ftb(u,y) | -ltb(z,y) | tcoinc(u,z) | -beforeIP(u,z) | ltb(w,x).  [factor(87,g,i),merge(i)].
kept:      125 -Chron(x) | -Chron(y) | -ftb(z,x) | -ltb(u,x) | -ftb(u,y) | -ltb(z,y) | tcoinc(u,z) | -beforeIP(u,z) | ftb(w,y).  [factor(88,g,i),merge(i)].
kept:      126 -Chron(x) | -Chron(y) | -ftb(z,x) | -ltb(u,x) | -ftb(u,y) | -ltb(z,y) | tcoinc(u,z) | -beforeIP(u,z) | ltb(w,y).  [factor(89,g,i),merge(i)].
kept:      127 -Chron(x) | -ftb(y,x) | -ltb(y,x) | -tcoinc(y,z) | -beforeIP(z,u) | -tcoinc(z,u) | -beforeIP(w,z) | -tcoinc(w,z).  [factor(101,e,f),unit_del(a,102)].
kept:      128 -Chron(x) | -ftb(y,x) | -ltb(z,x) | -tcoinc(y,u) | -tcoinc(z,u) | -beforeIP(u,w) | -tcoinc(u,w) | -beforeIP(y,u).  [factor(101,e,j),unit_del(a,102)].
kept:      129 beforeIP(x,y) | -Chron(z) | -ftb(u,z) | -ltb(w,z) | -tcoinc(u,x) | -tcoinc(w,y) | -beforeIP(x,v5) | -tcoinc(x,v5) | -beforeIP(w,y).  [factor(101,f,j)].
kept:      130 -Chron(x) | -ftb(y,x) | -ltb(z,x) | ftb(u,x).  [factor(110,c,d),xx(d)].
kept:      131 -Chron(x) | -ftb(y,x) | -ltb(z,x) | ltb(u,x).  [factor(114,c,d),xx(d)].
kept:      132 -Chron(x) | -ftb(y,x) | -ltb(y,x) | -tcoinc(y,z) | -beforeIP(z,u) | -tcoinc(z,u) | -beforeIP(y,z).  [factor(127,d,h)].

============================== end of process initial clauses ========

============================== CLAUSES FOR SEARCH ====================

% Clauses after input processing:

formulas(usable).
end_of_list.

formulas(sos).
46 -tb(x,y) | ftb(x,y) | ltb(x,y) # label(D8).  [clausify(2)].
47 tb(x,y) | -ftb(x,y) # label(D8).  [clausify(2)].
48 tb(x,y) | -ltb(x,y) # label(D8).  [clausify(2)].
49 -ltb(x,y) | Chron(y) # label(end_IP).  [clausify(4)].
50 -beforeIP(x,y) | -beforeIP(y,x) # label(IP2).  [clausify(5)].
51 -ltb(x,y) | -ltb(z,y) | z = x # label(IP8_2).  [clausify(6)].
52 c2 != c1 # label(A8).  [deny(10)].
53 -tb(x,y) | tb(x,f1(x)).  [resolve(11,a,12,a)].
54 -ltb(x,y) | tb(x,f1(x)).  [resolve(13,b,12,a)].
55 tcoinc(x,x) | -tb(x,y).  [resolve(14,a,11,a)].
56 tcoinc(x,x) | -ltb(x,y).  [resolve(14,a,13,b)].
57 -Chron(x) | -ftb(y,x) | -ltb(z,x) | -tcoinc(y,u) | -tcoinc(z,w) | Chron(f4(u,w)).  [resolve(15,a,16,a)].
58 -Chron(x) | -ftb(y,x) | -ltb(z,x) | -tcoinc(y,u) | -tcoinc(z,w) | ftb(f2(u,w),f4(u,w)).  [resolve(15,a,17,a)].
59 -Chron(x) | -ftb(y,x) | -ltb(z,x) | -tcoinc(y,u) | -tcoinc(z,w) | ltb(f3(u,w),f4(u,w)).  [resolve(15,a,18,a)].
60 -Chron(x) | -ftb(y,x) | -ltb(z,x) | -tcoinc(y,u) | -tcoinc(z,w) | tcoinc(f2(u,w),u).  [resolve(15,a,19,a)].
61 -Chron(x) | -ftb(y,x) | -ltb(z,x) | -tcoinc(y,u) | -tcoinc(z,w) | tcoinc(f3(u,w),w).  [resolve(15,a,20,a)].
62 -beforeIP(x,y) | tcoinc(x,y) | Chron(f4(x,y)).  [resolve(21,c,16,a)].
63 -beforeIP(x,y) | tcoinc(x,y) | ftb(f2(x,y),f4(x,y)).  [resolve(21,c,17,a)].
64 -beforeIP(x,y) | tcoinc(x,y) | ltb(f3(x,y),f4(x,y)).  [resolve(21,c,18,a)].
65 -beforeIP(x,y) | tcoinc(x,y) | tcoinc(f2(x,y),x).  [resolve(21,c,19,a)].
66 -beforeIP(x,y) | tcoinc(x,y) | tcoinc(f3(x,y),y).  [resolve(21,c,20,a)].
67 beforeIP(x,y) | tcoinc(x,y) | -Chron(z) | -ftb(u,z) | -ltb(w,z) | -tcoinc(u,x) | -tcoinc(w,y).  [resolve(22,c,15,a)].
92 Chron(c1).  [resolve(38,a,25,a)].
93 Chron(c2).  [resolve(38,a,26,a)].
94 ftb(x,c1).  [resolve(38,a,27,a)].
95 ltb(x,c1).  [resolve(38,a,28,a)].
96 ftb(x,c2).  [resolve(38,a,29,a)].
97 ltb(x,c2).  [resolve(38,a,30,a)].
98 x = y | -tcoinc(x,y).  [resolve(38,a,31,a)].
99 x = y | beforeIP(x,y).  [resolve(38,a,32,a)].
100 beforeIP(x,y) | -tcoinc(x,y) | -beforeIP(x,z) | -tcoinc(x,z) | -beforeIP(u,y) | -tcoinc(u,y).  [resolve(43,b,44,c)].
101 beforeIP(x,y) | -Chron(z) | -ftb(u,z) | -ltb(w,z) | -tcoinc(u,x) | -tcoinc(w,y) | -beforeIP(x,v5) | -tcoinc(x,v5) | -beforeIP(v6,y) | -tcoinc(v6,y).  [resolve(45,b,44,c)].
102 -beforeIP(x,x).  [factor(50,a,b)].
103 -Chron(x) | -ftb(y,x) | -ltb(y,x) | -tcoinc(y,z) | Chron(f4(z,z)).  [factor(57,d,e)].
104 -Chron(x) | -ftb(y,x) | -ltb(y,x) | -tcoinc(y,z) | ftb(f2(z,z),f4(z,z)).  [factor(58,d,e)].
105 -Chron(x) | -ftb(y,x) | -ltb(y,x) | -tcoinc(y,z) | ltb(f3(z,z),f4(z,z)).  [factor(59,d,e)].
106 -Chron(x) | -ftb(y,x) | -ltb(y,x) | -tcoinc(y,z) | tcoinc(f2(z,z),z).  [factor(60,d,e)].
107 -Chron(x) | -ftb(y,x) | -ltb(y,x) | -tcoinc(y,z) | tcoinc(f3(z,z),z).  [factor(61,d,e)].
108 tcoinc(x,x) | -Chron(y) | -ftb(z,y) | -ltb(z,y) | -tcoinc(z,x).  [factor(67,f,g),unit_del(a,102)].
127 -Chron(x) | -ftb(y,x) | -ltb(y,x) | -tcoinc(y,z) | -beforeIP(z,u) | -tcoinc(z,u) | -beforeIP(w,z) | -tcoinc(w,z).  [factor(101,e,f),unit_del(a,102)].
128 -Chron(x) | -ftb(y,x) | -ltb(z,x) | -tcoinc(y,u) | -tcoinc(z,u) | -beforeIP(u,w) | -tcoinc(u,w) | -beforeIP(y,u).  [factor(101,e,j),unit_del(a,102)].
129 beforeIP(x,y) | -Chron(z) | -ftb(u,z) | -ltb(w,z) | -tcoinc(u,x) | -tcoinc(w,y) | -beforeIP(x,v5) | -tcoinc(x,v5) | -beforeIP(w,y).  [factor(101,f,j)].
130 -Chron(x) | -ftb(y,x) | -ltb(z,x) | ftb(u,x).  [factor(110,c,d),xx(d)].
131 -Chron(x) | -ftb(y,x) | -ltb(z,x) | ltb(u,x).  [factor(114,c,d),xx(d)].
132 -Chron(x) | -ftb(y,x) | -ltb(y,x) | -tcoinc(y,z) | -beforeIP(z,u) | -tcoinc(z,u) | -beforeIP(y,z).  [factor(127,d,h)].
end_of_list.

formulas(demodulators).
end_of_list.

============================== end of clauses for search =============

============================== SEARCH ================================

% Starting search at 0.01 seconds.

given #1 (I,wt=9): 46 -tb(x,y) | ftb(x,y) | ltb(x,y) # label(D8).  [clausify(2)].

given #2 (I,wt=6): 47 tb(x,y) | -ftb(x,y) # label(D8).  [clausify(2)].

given #3 (I,wt=6): 48 tb(x,y) | -ltb(x,y) # label(D8).  [clausify(2)].

given #4 (I,wt=5): 49 -ltb(x,y) | Chron(y) # label(end_IP).  [clausify(4)].

given #5 (I,wt=6): 50 -beforeIP(x,y) | -beforeIP(y,x) # label(IP2).  [clausify(5)].

given #6 (I,wt=9): 51 -ltb(x,y) | -ltb(z,y) | z = x # label(IP8_2).  [clausify(6)].

given #7 (I,wt=3): 52 c2 != c1 # label(A8).  [deny(10)].

given #8 (I,wt=7): 53 -tb(x,y) | tb(x,f1(x)).  [resolve(11,a,12,a)].

given #9 (I,wt=7): 54 -ltb(x,y) | tb(x,f1(x)).  [resolve(13,b,12,a)].

given #10 (I,wt=6): 55 tcoinc(x,x) | -tb(x,y).  [resolve(14,a,11,a)].

given #11 (I,wt=6): 56 tcoinc(x,x) | -ltb(x,y).  [resolve(14,a,13,b)].

given #12 (I,wt=18): 57 -Chron(x) | -ftb(y,x) | -ltb(z,x) | -tcoinc(y,u) | -tcoinc(z,w) | Chron(f4(u,w)).  [resolve(15,a,16,a)].

given #13 (I,wt=21): 58 -Chron(x) | -ftb(y,x) | -ltb(z,x) | -tcoinc(y,u) | -tcoinc(z,w) | ftb(f2(u,w),f4(u,w)).  [resolve(15,a,17,a)].

given #14 (I,wt=21): 59 -Chron(x) | -ftb(y,x) | -ltb(z,x) | -tcoinc(y,u) | -tcoinc(z,w) | ltb(f3(u,w),f4(u,w)).  [resolve(15,a,18,a)].

given #15 (I,wt=19): 60 -Chron(x) | -ftb(y,x) | -ltb(z,x) | -tcoinc(y,u) | -tcoinc(z,w) | tcoinc(f2(u,w),u).  [resolve(15,a,19,a)].

given #16 (I,wt=19): 61 -Chron(x) | -ftb(y,x) | -ltb(z,x) | -tcoinc(y,u) | -tcoinc(z,w) | tcoinc(f3(u,w),w).  [resolve(15,a,20,a)].

given #17 (I,wt=10): 62 -beforeIP(x,y) | tcoinc(x,y) | Chron(f4(x,y)).  [resolve(21,c,16,a)].

given #18 (I,wt=13): 63 -beforeIP(x,y) | tcoinc(x,y) | ftb(f2(x,y),f4(x,y)).  [resolve(21,c,17,a)].

given #19 (I,wt=13): 64 -beforeIP(x,y) | tcoinc(x,y) | ltb(f3(x,y),f4(x,y)).  [resolve(21,c,18,a)].

given #20 (I,wt=11): 65 -beforeIP(x,y) | tcoinc(x,y) | tcoinc(f2(x,y),x).  [resolve(21,c,19,a)].

given #21 (I,wt=11): 66 -beforeIP(x,y) | tcoinc(x,y) | tcoinc(f3(x,y),y).  [resolve(21,c,20,a)].

given #22 (I,wt=20): 67 beforeIP(x,y) | tcoinc(x,y) | -Chron(z) | -ftb(u,z) | -ltb(w,z) | -tcoinc(u,x) | -tcoinc(w,y).  [resolve(22,c,15,a)].

given #23 (I,wt=2): 92 Chron(c1).  [resolve(38,a,25,a)].

given #24 (I,wt=2): 93 Chron(c2).  [resolve(38,a,26,a)].

given #25 (I,wt=3): 94 ftb(x,c1).  [resolve(38,a,27,a)].

given #26 (I,wt=3): 95 ltb(x,c1).  [resolve(38,a,28,a)].

============================== PROOF =================================

% Proof 1 at 0.01 (+ 0.00) seconds.
% Length of proof is 10.
% Level of proof is 4.
% Maximum clause weight is 9.000.
% Given clauses 26.

6 (all x all y all z (ltb(x,z) & ltb(y,z) -> x = y)) # label(IP8_2) # label(non_clause).  [assumption].
8 tpart(x,y) <-> Chron(x) & Chron(y) & ftb(u,x) & ltb(w,x) & ftb(v,y) & ltb(z,y) & (v != u -> -tcoinc(v,u) & beforeIP(v,u)) & (w != z -> -tcoinc(w,z) & beforeIP(w,z)) # label(B5) # label(non_clause).  [assumption].
10 (all x all y (tpart(x,y) & tpart(y,x) -> x = y)) # label(A8) # label(non_clause) # label(goal).  [goal].
28 -tpart(x,y) | ltb(z,x) # label(B5).  [clausify(8)].
38 tpart(c1,c2) # label(A8).  [deny(10)].
51 -ltb(x,y) | -ltb(z,y) | z = x # label(IP8_2).  [clausify(6)].
52 c2 != c1 # label(A8).  [deny(10)].
95 ltb(x,c1).  [resolve(38,a,28,a)].
136 x = y.  [resolve(95,a,51,b),unit_del(a,95)].
137 $F.  [resolve(136,a,52,a)].

============================== end of proof ==========================

============================== STATISTICS ============================

Given=26. Generated=221. Kept=91. proofs=1.
Usable=26. Sos=20. Demods=0. Limbo=2, Disabled=133. Hints=0.
Kept_by_rule=0, Deleted_by_rule=0.
Forward_subsumed=130. Back_subsumed=42.
Sos_limit_deleted=0. Sos_displaced=0. Sos_removed=0.
New_demodulators=0 (0 lex), Back_demodulated=0. Back_unit_deleted=0.
Demod_attempts=0. Demod_rewrites=0.
Res_instance_prunes=0. Para_instance_prunes=0. Basic_paramod_prunes=0.
Nonunit_fsub_feature_tests=232. Nonunit_bsub_feature_tests=377.
Megabytes=0.27.
User_CPU=0.01, System_CPU=0.00, Wall_clock=0.

============================== end of statistics =====================

============================== end of search =========================

THEOREM PROVED

Exiting with 1 proof.

Process 7270 exit (max_proofs) Mon Nov  5 18:29:17 2018
