============================== Prover9 ===============================
Prover9 (64) version 2009-11A, November 2009.
Process 7172 was started by frauke on frauke-LENOVO-YOGA3-11,
Mon Nov  5 18:27:37 2018
The command was "prover9 -f prover_input_files/test_input_file_A4.in".
============================== end of head ===========================

============================== INPUT =================================

% Reading from file prover_input_files/test_input_file_A4.in

set(ignore_option_dependencies).

formulas(assumptions).
Tb(x) <-> (exists y tb(x,y)) # label(D1).
tb(x,y) <-> ftb(x,y) | ltb(x,y) # label(D8).
before(x,y) <-> (exists u exists v exists z (Chron(z) & ftb(u,z) & ltb(v,z) & tcoinc(u,x) & tcoinc(v,y))) # label(D13).
(all x all y (ftb(x,y) -> Tb(x) & Chron(y))) # label(begin_IP).
(all x all y (ltb(x,y) -> Tb(x) & Chron(y))) # label(end_IP).
end_of_list.

formulas(goals).
(all x all y (tb(x,y) -> Tb(x) & Chron(y))) # label(A4).
end_of_list.

============================== end of input ==========================

% Enabling option dependencies (ignore applies only on input).

============================== PROCESS NON-CLAUSAL FORMULAS ==========

% Formulas that are not ordinary clauses:
1 Tb(x) <-> (exists y tb(x,y)) # label(D1) # label(non_clause).  [assumption].
2 tb(x,y) <-> ftb(x,y) | ltb(x,y) # label(D8) # label(non_clause).  [assumption].
3 before(x,y) <-> (exists u exists v exists z (Chron(z) & ftb(u,z) & ltb(v,z) & tcoinc(u,x) & tcoinc(v,y))) # label(D13) # label(non_clause).  [assumption].
4 (all x all y (ftb(x,y) -> Tb(x) & Chron(y))) # label(begin_IP) # label(non_clause).  [assumption].
5 (all x all y (ltb(x,y) -> Tb(x) & Chron(y))) # label(end_IP) # label(non_clause).  [assumption].
6 (all x all y (tb(x,y) -> Tb(x) & Chron(y))) # label(A4) # label(non_clause) # label(goal).  [goal].

============================== end of process non-clausal formulas ===

============================== PROCESS INITIAL CLAUSES ===============

% Clauses before input processing:

formulas(usable).
end_of_list.

formulas(sos).
-Tb(x) | tb(x,f1(x)) # label(D1).  [clausify(1)].
Tb(x) | -tb(x,y) # label(D1).  [clausify(1)].
-tb(x,y) | ftb(x,y) | ltb(x,y) # label(D8).  [clausify(2)].
tb(x,y) | -ftb(x,y) # label(D8).  [clausify(2)].
tb(x,y) | -ltb(x,y) # label(D8).  [clausify(2)].
-before(x,y) | Chron(f4(x,y)) # label(D13).  [clausify(3)].
-before(x,y) | ftb(f2(x,y),f4(x,y)) # label(D13).  [clausify(3)].
-before(x,y) | ltb(f3(x,y),f4(x,y)) # label(D13).  [clausify(3)].
-before(x,y) | tcoinc(f2(x,y),x) # label(D13).  [clausify(3)].
-before(x,y) | tcoinc(f3(x,y),y) # label(D13).  [clausify(3)].
before(x,y) | -Chron(z) | -ftb(u,z) | -ltb(w,z) | -tcoinc(u,x) | -tcoinc(w,y) # label(D13).  [clausify(3)].
-ftb(x,y) | Tb(x) # label(begin_IP).  [clausify(4)].
-ftb(x,y) | Chron(y) # label(begin_IP).  [clausify(4)].
-ltb(x,y) | Tb(x) # label(end_IP).  [clausify(5)].
-ltb(x,y) | Chron(y) # label(end_IP).  [clausify(5)].
tb(c1,c2) # label(A4).  [deny(6)].
-Tb(c1) | -Chron(c2) # label(A4).  [deny(6)].
end_of_list.

formulas(demodulators).
end_of_list.

============================== PREDICATE ELIMINATION =================

Eliminating Tb/1
7 Tb(x) | -tb(x,y) # label(D1).  [clausify(1)].
8 -Tb(x) | tb(x,f1(x)) # label(D1).  [clausify(1)].
Derived: -tb(x,y) | tb(x,f1(x)).  [resolve(7,a,8,a)].
9 -ftb(x,y) | Tb(x) # label(begin_IP).  [clausify(4)].
Derived: -ftb(x,y) | tb(x,f1(x)).  [resolve(9,b,8,a)].
10 -ltb(x,y) | Tb(x) # label(end_IP).  [clausify(5)].
Derived: -ltb(x,y) | tb(x,f1(x)).  [resolve(10,b,8,a)].
11 -Tb(c1) | -Chron(c2) # label(A4).  [deny(6)].
Derived: -Chron(c2) | -tb(c1,x).  [resolve(11,a,7,a)].
Derived: -Chron(c2) | -ftb(c1,x).  [resolve(11,a,9,b)].
Derived: -Chron(c2) | -ltb(c1,x).  [resolve(11,a,10,b)].

Eliminating ftb/2
12 tb(x,y) | -ftb(x,y) # label(D8).  [clausify(2)].
13 -tb(x,y) | ftb(x,y) | ltb(x,y) # label(D8).  [clausify(2)].
14 -before(x,y) | ftb(f2(x,y),f4(x,y)) # label(D13).  [clausify(3)].
Derived: -before(x,y) | tb(f2(x,y),f4(x,y)).  [resolve(14,b,12,b)].
15 before(x,y) | -Chron(z) | -ftb(u,z) | -ltb(w,z) | -tcoinc(u,x) | -tcoinc(w,y) # label(D13).  [clausify(3)].
Derived: before(x,y) | -Chron(z) | -ltb(u,z) | -tcoinc(w,x) | -tcoinc(u,y) | -tb(w,z) | ltb(w,z).  [resolve(15,c,13,b)].
Derived: before(x,y) | -Chron(f4(z,u)) | -ltb(w,f4(z,u)) | -tcoinc(f2(z,u),x) | -tcoinc(w,y) | -before(z,u).  [resolve(15,c,14,b)].
16 -ftb(x,y) | Chron(y) # label(begin_IP).  [clausify(4)].
Derived: Chron(x) | -tb(y,x) | ltb(y,x).  [resolve(16,a,13,b)].
Derived: Chron(f4(x,y)) | -before(x,y).  [resolve(16,a,14,b)].
17 -ftb(x,y) | tb(x,f1(x)).  [resolve(9,b,8,a)].
Derived: tb(x,f1(x)) | -tb(x,y) | ltb(x,y).  [resolve(17,a,13,b)].
Derived: tb(f2(x,y),f1(f2(x,y))) | -before(x,y).  [resolve(17,a,14,b)].
18 -Chron(c2) | -ftb(c1,x).  [resolve(11,a,9,b)].
Derived: -Chron(c2) | -tb(c1,x) | ltb(c1,x).  [resolve(18,b,13,b)].

Eliminating Chron/1
19 -Chron(c2) | -tb(c1,x).  [resolve(11,a,7,a)].
20 -before(x,y) | Chron(f4(x,y)) # label(D13).  [clausify(3)].
21 -ltb(x,y) | Chron(y) # label(end_IP).  [clausify(5)].
Derived: -tb(c1,x) | -ltb(y,c2).  [resolve(19,a,21,b)].
22 -Chron(c2) | -ltb(c1,x).  [resolve(11,a,10,b)].
Derived: -ltb(c1,x) | -ltb(y,c2).  [resolve(22,a,21,b)].
23 before(x,y) | -Chron(z) | -ltb(u,z) | -tcoinc(w,x) | -tcoinc(u,y) | -tb(w,z) | ltb(w,z).  [resolve(15,c,13,b)].
Derived: before(x,y) | -ltb(z,f4(u,w)) | -tcoinc(v5,x) | -tcoinc(z,y) | -tb(v5,f4(u,w)) | ltb(v5,f4(u,w)) | -before(u,w).  [resolve(23,b,20,b)].
Derived: before(x,y) | -ltb(z,u) | -tcoinc(w,x) | -tcoinc(z,y) | -tb(w,u) | ltb(w,u) | -ltb(v5,u).  [resolve(23,b,21,b)].
24 before(x,y) | -Chron(f4(z,u)) | -ltb(w,f4(z,u)) | -tcoinc(f2(z,u),x) | -tcoinc(w,y) | -before(z,u).  [resolve(15,c,14,b)].
Derived: before(x,y) | -ltb(z,f4(u,w)) | -tcoinc(f2(u,w),x) | -tcoinc(z,y) | -before(u,w) | -before(u,w).  [resolve(24,b,20,b)].
25 Chron(x) | -tb(y,x) | ltb(y,x).  [resolve(16,a,13,b)].
Derived: -tb(x,c2) | ltb(x,c2) | -tb(c1,y).  [resolve(25,a,19,a)].
Derived: -tb(x,c2) | ltb(x,c2) | -ltb(c1,y).  [resolve(25,a,22,a)].
26 Chron(f4(x,y)) | -before(x,y).  [resolve(16,a,14,b)].
27 -Chron(c2) | -tb(c1,x) | ltb(c1,x).  [resolve(18,b,13,b)].

============================== end predicate elimination =============

Auto_denials:  (non-Horn, no changes).

Term ordering decisions:
Predicate symbol precedence:  predicate_order([ tb, ltb, before, tcoinc ]).
Function symbol precedence:  function_order([ c1, c2, f2, f3, f4, f1 ]).
After inverse_order:  (no changes).
Unfolding symbols: (none).

Auto_inference settings:
  % set(binary_resolution).  % (non-Horn)
  % set(neg_ur_resolution).  % (non-Horn, less than 100 clauses)

Auto_process settings:
  % set(factor).  % (non-Horn)
  % set(unit_deletion).  % (non-Horn)

kept:      28 tb(x,y) | -ltb(x,y) # label(D8).  [clausify(2)].
kept:      29 -before(x,y) | ltb(f3(x,y),f4(x,y)) # label(D13).  [clausify(3)].
kept:      30 -before(x,y) | tcoinc(f2(x,y),x) # label(D13).  [clausify(3)].
kept:      31 -before(x,y) | tcoinc(f3(x,y),y) # label(D13).  [clausify(3)].
kept:      32 tb(c1,c2) # label(A4).  [deny(6)].
kept:      33 -tb(x,y) | tb(x,f1(x)).  [resolve(7,a,8,a)].
kept:      34 -ltb(x,y) | tb(x,f1(x)).  [resolve(10,b,8,a)].
kept:      35 -before(x,y) | tb(f2(x,y),f4(x,y)).  [resolve(14,b,12,b)].
kept:      36 tb(f2(x,y),f1(f2(x,y))) | -before(x,y).  [resolve(17,a,14,b)].
kept:      37 -tb(c1,x) | -ltb(y,c2).  [resolve(19,a,21,b)].
kept:      38 -ltb(c1,x) | -ltb(y,c2).  [resolve(22,a,21,b)].
kept:      39 before(x,y) | -ltb(z,f4(u,w)) | -tcoinc(v5,x) | -tcoinc(z,y) | -tb(v5,f4(u,w)) | ltb(v5,f4(u,w)) | -before(u,w).  [resolve(23,b,20,b)].
kept:      40 before(x,y) | -ltb(z,u) | -tcoinc(w,x) | -tcoinc(z,y) | -tb(w,u) | ltb(w,u) | -ltb(v5,u).  [resolve(23,b,21,b)].
           41 before(x,y) | -ltb(z,f4(u,w)) | -tcoinc(f2(u,w),x) | -tcoinc(z,y) | -before(u,w) | -before(u,w).  [resolve(24,b,20,b)].
kept:      42 before(x,y) | -ltb(z,f4(u,w)) | -tcoinc(f2(u,w),x) | -tcoinc(z,y) | -before(u,w).  [copy(41),merge(f)].
kept:      43 -tb(x,c2) | ltb(x,c2) | -tb(c1,y).  [resolve(25,a,19,a)].
kept:      44 -tb(x,c2) | ltb(x,c2) | -ltb(c1,y).  [resolve(25,a,22,a)].
kept:      45 -ltb(c1,c2).  [factor(38,a,b)].
kept:      46 before(x,y) | -ltb(z,u) | -tcoinc(w,x) | -tcoinc(z,y) | -tb(w,u) | ltb(w,u).  [factor(40,b,g)].
kept:      47 before(x,x) | -ltb(f2(y,z),f4(y,z)) | -tcoinc(f2(y,z),x) | -before(y,z).  [factor(42,c,d)].

============================== PROOF =================================

% Proof 1 at 0.00 (+ 0.00) seconds.
% Length of proof is 19.
% Level of proof is 5.
% Maximum clause weight is 9.000.
% Given clauses 0.

1 Tb(x) <-> (exists y tb(x,y)) # label(D1) # label(non_clause).  [assumption].
2 tb(x,y) <-> ftb(x,y) | ltb(x,y) # label(D8) # label(non_clause).  [assumption].
4 (all x all y (ftb(x,y) -> Tb(x) & Chron(y))) # label(begin_IP) # label(non_clause).  [assumption].
5 (all x all y (ltb(x,y) -> Tb(x) & Chron(y))) # label(end_IP) # label(non_clause).  [assumption].
6 (all x all y (tb(x,y) -> Tb(x) & Chron(y))) # label(A4) # label(non_clause) # label(goal).  [goal].
7 Tb(x) | -tb(x,y) # label(D1).  [clausify(1)].
10 -ltb(x,y) | Tb(x) # label(end_IP).  [clausify(5)].
11 -Tb(c1) | -Chron(c2) # label(A4).  [deny(6)].
13 -tb(x,y) | ftb(x,y) | ltb(x,y) # label(D8).  [clausify(2)].
16 -ftb(x,y) | Chron(y) # label(begin_IP).  [clausify(4)].
19 -Chron(c2) | -tb(c1,x).  [resolve(11,a,7,a)].
21 -ltb(x,y) | Chron(y) # label(end_IP).  [clausify(5)].
22 -Chron(c2) | -ltb(c1,x).  [resolve(11,a,10,b)].
25 Chron(x) | -tb(y,x) | ltb(y,x).  [resolve(16,a,13,b)].
32 tb(c1,c2) # label(A4).  [deny(6)].
38 -ltb(c1,x) | -ltb(y,c2).  [resolve(22,a,21,b)].
43 -tb(x,c2) | ltb(x,c2) | -tb(c1,y).  [resolve(25,a,19,a)].
45 -ltb(c1,c2).  [factor(38,a,b)].
48 $F.  [factor(43,a,c),unit_del(a,32),unit_del(b,45)].

============================== end of proof ==========================

============================== STATISTICS ============================

Given=0. Generated=23. Kept=19. proofs=1.
Usable=0. Sos=14. Demods=0. Limbo=5, Disabled=38. Hints=0.
Kept_by_rule=0, Deleted_by_rule=0.
Forward_subsumed=3. Back_subsumed=0.
Sos_limit_deleted=0. Sos_displaced=0. Sos_removed=0.
New_demodulators=0 (0 lex), Back_demodulated=0. Back_unit_deleted=0.
Demod_attempts=0. Demod_rewrites=0.
Res_instance_prunes=0. Para_instance_prunes=0. Basic_paramod_prunes=0.
Nonunit_fsub_feature_tests=3. Nonunit_bsub_feature_tests=15.
Megabytes=0.10.
User_CPU=0.00, System_CPU=0.00, Wall_clock=0.

============================== end of statistics =====================

============================== end of search =========================

THEOREM PROVED

Exiting with 1 proof.

Process 7172 exit (max_proofs) Mon Nov  5 18:27:37 2018
